%YAML 1.1
%TAG !u! tag:unity3d.com,2011:
--- !u!21 &2100000
Material:
  serializedVersion: 6
  m_ObjectHideFlags: 0
  m_CorrespondingSourceObject: {fileID: 0}
  m_PrefabInstance: {fileID: 0}
  m_PrefabAsset: {fileID: 0}
  m_Name: Shader Graphs_TrailShader_Dwarf2
  m_Shader: {fileID: -6465566751694194690, guid: 07c3cb14c5f49bf4ba3c0b30a02628a8, type: 3}
  m_ShaderKeywords: 
  m_LightmapFlags: 4
  m_EnableInstancingVariants: 0
  m_DoubleSidedGI: 0
  m_CustomRenderQueue: -1
  stringTagMap: {}
  disabledShaderPasses: []
  m_SavedProperties:
    serializedVersion: 3
    m_TexEnvs:
    - Texture2D_482b5e8d1f3c4a748949bb15603a0535:
        m_Texture: {fileID: 2800000, guid: 3a2addd3b86f13444b0a6f96ff06c3f8, type: 3}
        m_Scale: {x: 1, y: 1}
        m_Offset: {x: 0, y: 0}
    - unity_Lightmaps:
        m_Texture: {fileID: 0}
        m_Scale: {x: 1, y: 1}
        m_Offset: {x: 0, y: 0}
    - unity_LightmapsInd:
        m_Texture: {fileID: 0}
        m_Scale: {x: 1, y: 1}
        m_Offset: {x: 0, y: 0}
    - unity_ShadowMasks:
        m_Texture: {fileID: 0}
        m_Scale: {x: 1, y: 1}
        m_Offset: {x: 0, y: 0}
    m_Floats:
    - Vector1_c8b1dba75faa48f08de5d45e6666d3f3: 35
    m_Colors:
    - Color_3580a3dea6b84fb6a8a434eece27b399: {r: 25.084745, g: 0, b: 4.560021, a: 0}
    - Color_6c6f1fa729fa4d84a047eadbfede0438: {r: 10.432951, g: 0, b: 0, a: 0}
    - Vector2_7467c01ba35741e58d0db9659cc094af: {r: -0.5, g: 0, b: 0, a: 0}
    - Vector2_77ab43a21ad9467fbe658bef1061032f: {r: -1, g: 0, b: 0, a: 0}
  m_BuildTextureStacks: []
