digraph G {
node0 [shape="box" color="cyan" style="filled" label="VFXExpressionMax Float
Rate_a"]
node1 [shape="box" label="VFXValue`1 Float (30)"]
node2 [shape="box" color="lightslategray" style="filled" label="VFXValue`1 Float (0)"]
node3 [shape="box" color="cyan" style="filled" label="VFXExpressionCombine Float3
bounds_center"]
node4 [shape="box" color="lightgray" style="filled" label="VFXValue`1 Float (0)"]
node5 [shape="box" color="lightgray" style="filled" label="VFXValue`1 Float (1)"]
node6 [shape="box" color="lightgray" style="filled" label="VFXValue`1 Float (0)"]
node7 [shape="box" color="cyan" style="filled" label="VFXExpressionCombine Float3
bounds_size"]
node8 [shape="box" color="lightgray" style="filled" label="VFXValue`1 Float (2)"]
node9 [shape="box" color="lightgray" style="filled" label="VFXValue`1 Float (3)"]
node10 [shape="box" color="lightgray" style="filled" label="VFXValue`1 Float (2)"]
node11 [shape="box" color="cyan" style="filled" label="VFXExpressionCombine Float3
bounds_center"]
node12 [shape="box" color="lightgray" style="filled" label="VFXValue`1 Float (0)"]
node13 [shape="box" color="lightgray" style="filled" label="VFXValue`1 Float (1)"]
node14 [shape="box" color="lightgray" style="filled" label="VFXValue`1 Float (0)"]
node15 [shape="box" color="cyan" style="filled" label="VFXExpressionCombine Float3
bounds_size"]
node16 [shape="box" color="lightgray" style="filled" label="VFXValue`1 Float (2)"]
node17 [shape="box" color="lightgray" style="filled" label="VFXValue`1 Float (3)"]
node18 [shape="box" color="lightgray" style="filled" label="VFXValue`1 Float (2)"]
node19 [shape="box" color="cyan" style="filled" label="VFXExpressionCombine Float3
Color_a"]
node20 [shape="box" label="VFXExpressionExtractComponent Float"]
node21 [shape="box" label="VFXValue`1 Float4 ((0.0, 5.7, 8.0, 0.0))"]
node22 [shape="box" label="VFXExpressionExtractComponent Float"]
node23 [shape="box" label="VFXExpressionExtractComponent Float"]
node24 [shape="box" color="cyan" style="filled" label="VFXExpressionCombine Float3
ArcSphere_sphere_center_b"]
node25 [shape="box" color="lightgray" style="filled" label="VFXValue`1 Float (0)"]
node26 [shape="box" color="lightgray" style="filled" label="VFXValue`1 Float (0)"]
node27 [shape="box" color="lightgray" style="filled" label="VFXValue`1 Float (0)"]
node28 [shape="box" color="cyan" style="filled" label="VFXExpressionMul Float
ArcSphere_sphere_radius_b"]
node29 [shape="box" label="VFXValue`1 Float (1)"]
node30 [shape="box" color="lightgray" style="filled" label="VFXValue`1 Float (1)"]
node31 [shape="box" color="cyan" style="filled" label="VFXExpressionMin Float
ArcSphere_arc_b"]
node32 [shape="box" color="lightgray" style="filled" label="VFXExpressionMax Float"]
node33 [shape="box" color="lightgray" style="filled" label="VFXValue`1 Float (6,283185)"]
node34 [shape="box" color="lightslategray" style="filled" label="VFXValue`1 Float (6,283185)"]
node35 [shape="box" color="cyan" style="filled" label="VFXExpressionPow Float
volumeFactor_b"]
node36 [shape="box" color="lightgray" style="filled" label="VFXExpressionSubtract Float"]
node37 [shape="box" color="lightslategray" style="filled" label="VFXValue`1 Float (1)"]
node38 [shape="box" color="lightslategray" style="filled" label="VFXValue`1 Float (3)"]
node39 [shape="box" color="cyan" style="filled" label="VFXExpressionMul Float
A_c"]
node40 [shape="box" label="VFXValue`1 Float (1)"]
node41 [shape="box" color="lightgray" style="filled" label="VFXValue`1 Float (1)"]
node42 [shape="box" color="cyan" style="filled" label="VFXExpressionMul Float
B_c"]
node43 [shape="box" color="lightgray" style="filled" label="VFXValue`1 Float (3)"]
node44 [shape="box" color="cyan" style="filled" label="VFXExpressionInverseTRSMatrix Matrix4x4
InvFieldTransform_a"]
node45 [shape="box" color="cyan" style="filled" label="VFXExpressionTRSToMatrix Matrix4x4
FieldTransform_a"]
node46 [shape="box" color="lightgray" style="filled" label="VFXExpressionCombine Float3"]
node47 [shape="box" color="lightgray" style="filled" label="VFXValue`1 Float (0)"]
node48 [shape="box" color="lightgray" style="filled" label="VFXValue`1 Float (0)"]
node49 [shape="box" color="lightgray" style="filled" label="VFXValue`1 Float (0)"]
node50 [shape="box" color="lightgray" style="filled" label="VFXExpressionCombine Float3"]
node51 [shape="box" color="lightgray" style="filled" label="VFXValue`1 Float (0)"]
node52 [shape="box" color="lightgray" style="filled" label="VFXValue`1 Float (0)"]
node53 [shape="box" color="lightgray" style="filled" label="VFXValue`1 Float (0)"]
node54 [shape="box" color="lightgray" style="filled" label="VFXExpressionCombine Float3"]
node55 [shape="box" color="lightgray" style="filled" label="VFXValue`1 Float (0,3)"]
node56 [shape="box" color="lightgray" style="filled" label="VFXValue`1 Float (0,3)"]
node57 [shape="box" color="lightgray" style="filled" label="VFXValue`1 Float (0,3)"]
node58 [shape="box" color="cyan" style="filled" label="VFXValue`1 Float (5)
Intensity_a"]
node59 [shape="box" color="cyan" style="filled" label="VFXExpressionMax Float
Drag_a"]
node60 [shape="box" color="lightgray" style="filled" label="VFXValue`1 Float (1)"]
node61 [shape="box" color="cyan" style="filled" label="VFXValue`1 Float (1)
frequency_a"]
node62 [shape="box" color="cyan" style="filled" label="VFXExpressionMin Int32
octaves_a"]
node63 [shape="box" color="lightgray" style="filled" label="VFXExpressionMax Int32"]
node64 [shape="box" color="lightgray" style="filled" label="VFXValue`1 Int32 (3)"]
node65 [shape="box" color="lightslategray" style="filled" label="VFXValue`1 Int32 (1)"]
node66 [shape="box" color="lightslategray" style="filled" label="VFXValue`1 Int32 (8)"]
node67 [shape="box" color="cyan" style="filled" label="VFXExpressionMin Float
roughness_a"]
node68 [shape="box" color="lightgray" style="filled" label="VFXExpressionMax Float"]
node69 [shape="box" color="lightgray" style="filled" label="VFXValue`1 Float (0,8348661)"]
node70 [shape="box" color="cyan" style="filled" label="VFXExpressionMax Float
lacunarity_a"]
node71 [shape="box" color="lightgray" style="filled" label="VFXValue`1 Float (2)"]
node72 [shape="box" color="cyan" style="filled" label="VFXBuiltInExpression Float (DeltaTime)
deltaTime_a
deltaTime_b
deltaTime_c
deltaTime_d
deltaTime_e
deltaTime_a
deltaTime_b
deltaTime_c"]
node73 [shape="box" color="cyan" style="filled" label="VFXExpressionCombine Float3
Sphere_center_b"]
node74 [shape="box" color="lightgray" style="filled" label="VFXValue`1 Float (0)"]
node75 [shape="box" color="lightgray" style="filled" label="VFXValue`1 Float (0)"]
node76 [shape="box" color="lightgray" style="filled" label="VFXValue`1 Float (0)"]
node77 [shape="box" color="cyan" style="filled" label="VFXExpressionMul Float
Sphere_radius_b"]
node78 [shape="box" color="lightgray" style="filled" label="VFXValue`1 Float (1,5)"]
node79 [shape="box" color="cyan" style="filled" label="VFXValue`1 Float (5)
attractionSpeed_b"]
node80 [shape="box" color="cyan" style="filled" label="VFXValue`1 Float (10)
attractionForce_b"]
node81 [shape="box" color="cyan" style="filled" label="VFXValue`1 Float (0,1)
stickDistance_b"]
node82 [shape="box" color="cyan" style="filled" label="VFXValue`1 Float (5)
stickForce_b"]
node83 [shape="box" color="cyan" style="filled" label="VFXValue`1 Float (30)
Rate_c"]
node84 [shape="box" color="orange" style="filled" label="VFXAttributeExpression Float3 (position)
Value_a"]
node85 [shape="box" color="orange" style="filled" label="VFXAttributeExpression Float3 (color)
Value_b"]
node86 [shape="box" color="orange" style="filled" label="VFXAttributeExpression Float (lifetime)
Value_c"]
node87 [shape="box" color="cyan" style="filled" label="VFXExpressionInverseTRSMatrix Matrix4x4
InvFieldTransform_a"]
node88 [shape="box" color="cyan" style="filled" label="VFXExpressionTRSToMatrix Matrix4x4
FieldTransform_a"]
node89 [shape="box" color="lightgray" style="filled" label="VFXExpressionCombine Float3"]
node90 [shape="box" color="lightgray" style="filled" label="VFXValue`1 Float (0)"]
node91 [shape="box" color="lightgray" style="filled" label="VFXValue`1 Float (0)"]
node92 [shape="box" color="lightgray" style="filled" label="VFXValue`1 Float (0)"]
node93 [shape="box" color="lightgray" style="filled" label="VFXExpressionCombine Float3"]
node94 [shape="box" color="lightgray" style="filled" label="VFXValue`1 Float (0)"]
node95 [shape="box" color="lightgray" style="filled" label="VFXValue`1 Float (0)"]
node96 [shape="box" color="lightgray" style="filled" label="VFXValue`1 Float (0)"]
node97 [shape="box" color="lightgray" style="filled" label="VFXExpressionCombine Float3"]
node98 [shape="box" color="lightgray" style="filled" label="VFXValue`1 Float (0,3)"]
node99 [shape="box" color="lightgray" style="filled" label="VFXValue`1 Float (0,3)"]
node100 [shape="box" color="lightgray" style="filled" label="VFXValue`1 Float (0,3)"]
node101 [shape="box" color="cyan" style="filled" label="VFXValue`1 Float (0,1)
Intensity_a"]
node102 [shape="box" color="cyan" style="filled" label="VFXExpressionMax Float
Drag_a"]
node103 [shape="box" color="lightgray" style="filled" label="VFXValue`1 Float (1)"]
node104 [shape="box" color="cyan" style="filled" label="VFXValue`1 Float (1)
frequency_a"]
node105 [shape="box" color="cyan" style="filled" label="VFXExpressionMin Int32
octaves_a"]
node106 [shape="box" color="lightgray" style="filled" label="VFXExpressionMax Int32"]
node107 [shape="box" color="lightgray" style="filled" label="VFXValue`1 Int32 (1)"]
node108 [shape="box" color="cyan" style="filled" label="VFXExpressionMin Float
roughness_a"]
node109 [shape="box" color="lightgray" style="filled" label="VFXExpressionMax Float"]
node110 [shape="box" color="lightgray" style="filled" label="VFXValue`1 Float (0,8348661)"]
node111 [shape="box" color="cyan" style="filled" label="VFXExpressionMax Float
lacunarity_a"]
node112 [shape="box" color="lightgray" style="filled" label="VFXValue`1 Float (2)"]
node113 [shape="box" color="orange" style="filled" label="VFXExpressionStripTangent Float3
stripTangent_a"]
node114 [shape="box" color="cyan" style="filled" label="VFXValue`1 Float (0,1)
Size_b"]
node115 [shape="box" color="cyan" style="filled" label="VFXTexture2DValue Texture2D (820)
mainTexture"]
node1 -> node0 [headlabel="0"]
node2 -> node0 [headlabel="1"]
node4 -> node3 [headlabel="0"]
node5 -> node3 [headlabel="1"]
node6 -> node3 [headlabel="2"]
node8 -> node7 [headlabel="0"]
node9 -> node7 [headlabel="1"]
node10 -> node7 [headlabel="2"]
node12 -> node11 [headlabel="0"]
node13 -> node11 [headlabel="1"]
node14 -> node11 [headlabel="2"]
node16 -> node15 [headlabel="0"]
node17 -> node15 [headlabel="1"]
node18 -> node15 [headlabel="2"]
node20 -> node19 [headlabel="0"]
node22 -> node19 [headlabel="1"]
node23 -> node19 [headlabel="2"]
node21 -> node20 
node21 -> node22 
node21 -> node23 
node25 -> node24 [headlabel="0"]
node26 -> node24 [headlabel="1"]
node27 -> node24 [headlabel="2"]
node29 -> node28 [headlabel="0"]
node30 -> node28 [headlabel="1"]
node32 -> node31 [headlabel="0"]
node34 -> node31 [headlabel="1"]
node33 -> node32 [headlabel="0"]
node2 -> node32 [headlabel="1"]
node36 -> node35 [headlabel="0"]
node38 -> node35 [headlabel="1"]
node37 -> node36 [headlabel="0"]
node2 -> node36 [headlabel="1"]
node40 -> node39 [headlabel="0"]
node41 -> node39 [headlabel="1"]
node40 -> node42 [headlabel="0"]
node43 -> node42 [headlabel="1"]
node45 -> node44 
node46 -> node45 [headlabel="0"]
node50 -> node45 [headlabel="1"]
node54 -> node45 [headlabel="2"]
node47 -> node46 [headlabel="0"]
node48 -> node46 [headlabel="1"]
node49 -> node46 [headlabel="2"]
node51 -> node50 [headlabel="0"]
node52 -> node50 [headlabel="1"]
node53 -> node50 [headlabel="2"]
node55 -> node54 [headlabel="0"]
node56 -> node54 [headlabel="1"]
node57 -> node54 [headlabel="2"]
node60 -> node59 [headlabel="0"]
node2 -> node59 [headlabel="1"]
node63 -> node62 [headlabel="0"]
node66 -> node62 [headlabel="1"]
node64 -> node63 [headlabel="0"]
node65 -> node63 [headlabel="1"]
node68 -> node67 [headlabel="0"]
node37 -> node67 [headlabel="1"]
node69 -> node68 [headlabel="0"]
node2 -> node68 [headlabel="1"]
node71 -> node70 [headlabel="0"]
node2 -> node70 [headlabel="1"]
node74 -> node73 [headlabel="0"]
node75 -> node73 [headlabel="1"]
node76 -> node73 [headlabel="2"]
node29 -> node77 [headlabel="0"]
node78 -> node77 [headlabel="1"]
node88 -> node87 
node89 -> node88 [headlabel="0"]
node93 -> node88 [headlabel="1"]
node97 -> node88 [headlabel="2"]
node90 -> node89 [headlabel="0"]
node91 -> node89 [headlabel="1"]
node92 -> node89 [headlabel="2"]
node94 -> node93 [headlabel="0"]
node95 -> node93 [headlabel="1"]
node96 -> node93 [headlabel="2"]
node98 -> node97 [headlabel="0"]
node99 -> node97 [headlabel="1"]
node100 -> node97 [headlabel="2"]
node103 -> node102 [headlabel="0"]
node2 -> node102 [headlabel="1"]
node106 -> node105 [headlabel="0"]
node66 -> node105 [headlabel="1"]
node107 -> node106 [headlabel="0"]
node65 -> node106 [headlabel="1"]
node109 -> node108 [headlabel="0"]
node37 -> node108 [headlabel="1"]
node110 -> node109 [headlabel="0"]
node2 -> node109 [headlabel="1"]
node112 -> node111 [headlabel="0"]
node2 -> node111 [headlabel="1"]
}
