%YAML 1.1
%TAG !u! tag:unity3d.com,2011:
--- !u!74 &7400000
AnimationClip:
  m_ObjectHideFlags: 0
  m_CorrespondingSourceObject: {fileID: 0}
  m_PrefabInstance: {fileID: 0}
  m_PrefabAsset: {fileID: 0}
  m_Name: Idle
  serializedVersion: 6
  m_Legacy: 0
  m_Compressed: 0
  m_UseHighQualityCurve: 1
  m_RotationCurves:
  - curve:
      serializedVersion: 2
      m_Curve:
      - serializedVersion: 3
        time: 0
        value: {x: -0.7071068, y: 0, z: 8.659561e-17, w: 0.7071068}
        inSlope: {x: 0.005431652, y: 6.648718e-19, z: -3.1763736e-22, w: 0.0054273605}
        outSlope: {x: 0.005431652, y: 6.648718e-19, z: -3.1763736e-22, w: 0.0054273605}
        tangentMode: 0
        weightedMode: 0
        inWeight: {x: 0.33333334, y: 0.33333334, z: 0.33333334, w: 0.33333334}
        outWeight: {x: 0.33333334, y: 0.33333334, z: 0.33333334, w: 0.33333334}
      - serializedVersion: 3
        time: 1
        value: {x: -0.6829017, y: 2.9151876e-18, z: 8.654652e-17, w: 0.7305103}
        inSlope: {x: -0.039171673, y: -4.641456e-18, z: 1.5564223e-19, w: -0.036629654}
        outSlope: {x: -0.039171673, y: -4.641456e-18, z: 1.5564223e-19, w: -0.036629654}
        tangentMode: 0
        weightedMode: 0
        inWeight: {x: 0.33333334, y: 0.33333334, z: 0.33333334, w: 0.33333334}
        outWeight: {x: 0.33333334, y: 0.33333334, z: 0.33333334, w: 0.33333334}
      - serializedVersion: 3
        time: 1.625
        value: {x: -0.7071068, y: 0, z: 8.659561e-17, w: 0.7071068}
        inSlope: {x: -0.00490952, y: -6.0108346e-19, z: 3.1763766e-22, w: -0.004906659}
        outSlope: {x: -0.00490952, y: -6.0108346e-19, z: 3.1763766e-22, w: -0.004906659}
        tangentMode: 0
        weightedMode: 0
        inWeight: {x: 0.33333334, y: 0.33333334, z: 0.33333334, w: 0.33333334}
        outWeight: {x: 0.33333334, y: 0.33333334, z: 0.33333334, w: 0.33333334}
      m_PreInfinity: 2
      m_PostInfinity: 2
      m_RotationOrder: 4
    path: Hat
  - curve:
      serializedVersion: 2
      m_Curve:
      - serializedVersion: 3
        time: 0
        value: {x: -0.7071068, y: 0, z: 8.659561e-17, w: 0.7071068}
        inSlope: {x: 0.005431652, y: 6.648718e-19, z: -3.1763736e-22, w: 0.0054273605}
        outSlope: {x: 0.005431652, y: 6.648718e-19, z: -3.1763736e-22, w: 0.0054273605}
        tangentMode: 0
        weightedMode: 0
        inWeight: {x: 0.33333334, y: 0.33333334, z: 0.33333334, w: 0.33333334}
        outWeight: {x: 0.33333334, y: 0.33333334, z: 0.33333334, w: 0.33333334}
      - serializedVersion: 3
        time: 1
        value: {x: -0.6829017, y: 2.9151876e-18, z: 8.654652e-17, w: 0.7305103}
        inSlope: {x: -0.039171673, y: -4.641456e-18, z: 1.5564223e-19, w: -0.036629654}
        outSlope: {x: -0.039171673, y: -4.641456e-18, z: 1.5564223e-19, w: -0.036629654}
        tangentMode: 0
        weightedMode: 0
        inWeight: {x: 0.33333334, y: 0.33333334, z: 0.33333334, w: 0.33333334}
        outWeight: {x: 0.33333334, y: 0.33333334, z: 0.33333334, w: 0.33333334}
      - serializedVersion: 3
        time: 1.625
        value: {x: -0.7071068, y: 0, z: 8.659561e-17, w: 0.7071068}
        inSlope: {x: -0.00490952, y: -6.0108346e-19, z: 3.1763766e-22, w: -0.004906659}
        outSlope: {x: -0.00490952, y: -6.0108346e-19, z: 3.1763766e-22, w: -0.004906659}
        tangentMode: 0
        weightedMode: 0
        inWeight: {x: 0.33333334, y: 0.33333334, z: 0.33333334, w: 0.33333334}
        outWeight: {x: 0.33333334, y: 0.33333334, z: 0.33333334, w: 0.33333334}
      m_PreInfinity: 2
      m_PostInfinity: 2
      m_RotationOrder: 4
    path: Beard
  - curve:
      serializedVersion: 2
      m_Curve:
      - serializedVersion: 3
        time: 0
        value: {x: -0.7071068, y: 0, z: 8.659561e-17, w: 0.7071068}
        inSlope: {x: 0.005431652, y: 6.648718e-19, z: -3.1763736e-22, w: 0.0054273605}
        outSlope: {x: 0.005431652, y: 6.648718e-19, z: -3.1763736e-22, w: 0.0054273605}
        tangentMode: 0
        weightedMode: 0
        inWeight: {x: 0.33333334, y: 0.33333334, z: 0.33333334, w: 0.33333334}
        outWeight: {x: 0.33333334, y: 0.33333334, z: 0.33333334, w: 0.33333334}
      - serializedVersion: 3
        time: 1
        value: {x: -0.6829017, y: 2.9151876e-18, z: 8.654652e-17, w: 0.7305103}
        inSlope: {x: -0.039171673, y: -4.641456e-18, z: 1.5564223e-19, w: -0.036629654}
        outSlope: {x: -0.039171673, y: -4.641456e-18, z: 1.5564223e-19, w: -0.036629654}
        tangentMode: 0
        weightedMode: 0
        inWeight: {x: 0.33333334, y: 0.33333334, z: 0.33333334, w: 0.33333334}
        outWeight: {x: 0.33333334, y: 0.33333334, z: 0.33333334, w: 0.33333334}
      - serializedVersion: 3
        time: 1.625
        value: {x: -0.7071068, y: 0, z: 8.659561e-17, w: 0.7071068}
        inSlope: {x: -0.00490952, y: -6.0108346e-19, z: 3.1763766e-22, w: -0.004906659}
        outSlope: {x: -0.00490952, y: -6.0108346e-19, z: 3.1763766e-22, w: -0.004906659}
        tangentMode: 0
        weightedMode: 0
        inWeight: {x: 0.33333334, y: 0.33333334, z: 0.33333334, w: 0.33333334}
        outWeight: {x: 0.33333334, y: 0.33333334, z: 0.33333334, w: 0.33333334}
      m_PreInfinity: 2
      m_PostInfinity: 2
      m_RotationOrder: 4
    path: Hair
  - curve:
      serializedVersion: 2
      m_Curve:
      - serializedVersion: 3
        time: 0
        value: {x: -0.7071068, y: 0, z: 8.659561e-17, w: 0.7071068}
        inSlope: {x: 0, y: 0, z: 0, w: 0}
        outSlope: {x: 0, y: 0, z: 0, w: 0}
        tangentMode: 0
        weightedMode: 0
        inWeight: {x: 0.33333334, y: 0.33333334, z: 0.33333334, w: 0.33333334}
        outWeight: {x: 0.33333334, y: 0.33333334, z: 0.33333334, w: 0.33333334}
      - serializedVersion: 3
        time: 1.625
        value: {x: -0.7071068, y: 0, z: 8.659561e-17, w: 0.7071068}
        inSlope: {x: 0, y: 0, z: 0, w: 0}
        outSlope: {x: 0, y: 0, z: 0, w: 0}
        tangentMode: 0
        weightedMode: 0
        inWeight: {x: 0.33333334, y: 0.33333334, z: 0.33333334, w: 0.33333334}
        outWeight: {x: 0.33333334, y: 0.33333334, z: 0.33333334, w: 0.33333334}
      m_PreInfinity: 2
      m_PostInfinity: 2
      m_RotationOrder: 4
    path: Armature
  - curve:
      serializedVersion: 2
      m_Curve:
      - serializedVersion: 3
        time: 0
        value: {x: 0.7071068, y: 0, z: -0, w: 0.7071067}
        inSlope: {x: 0, y: 0, z: 0, w: 0}
        outSlope: {x: 0, y: 0, z: 0, w: 0}
        tangentMode: 0
        weightedMode: 0
        inWeight: {x: 0.33333334, y: 0.33333334, z: 0.33333334, w: 0.33333334}
        outWeight: {x: 0.33333334, y: 0.33333334, z: 0.33333334, w: 0.33333334}
      - serializedVersion: 3
        time: 1.625
        value: {x: 0.7071068, y: 0, z: -0, w: 0.7071067}
        inSlope: {x: 0, y: 0, z: 0, w: 0}
        outSlope: {x: 0, y: 0, z: 0, w: 0}
        tangentMode: 0
        weightedMode: 0
        inWeight: {x: 0.33333334, y: 0.33333334, z: 0.33333334, w: 0.33333334}
        outWeight: {x: 0.33333334, y: 0.33333334, z: 0.33333334, w: 0.33333334}
      m_PreInfinity: 2
      m_PostInfinity: 2
      m_RotationOrder: 4
    path: Armature/Root
  - curve:
      serializedVersion: 2
      m_Curve:
      - serializedVersion: 3
        time: 0
        value: {x: 0, y: 0, z: -0, w: 1}
        inSlope: {x: 0, y: 0, z: 0, w: 0}
        outSlope: {x: 0, y: 0, z: 0, w: 0}
        tangentMode: 0
        weightedMode: 0
        inWeight: {x: 0.33333334, y: 0.33333334, z: 0.33333334, w: 0.33333334}
        outWeight: {x: 0.33333334, y: 0.33333334, z: 0.33333334, w: 0.33333334}
      - serializedVersion: 3
        time: 1.625
        value: {x: 0, y: 0, z: -0, w: 1}
        inSlope: {x: 0, y: 0, z: 0, w: 0}
        outSlope: {x: 0, y: 0, z: 0, w: 0}
        tangentMode: 0
        weightedMode: 0
        inWeight: {x: 0.33333334, y: 0.33333334, z: 0.33333334, w: 0.33333334}
        outWeight: {x: 0.33333334, y: 0.33333334, z: 0.33333334, w: 0.33333334}
      m_PreInfinity: 2
      m_PostInfinity: 2
      m_RotationOrder: 4
    path: Armature/Root/Spine1
  - curve:
      serializedVersion: 2
      m_Curve:
      - serializedVersion: 3
        time: 0
        value: {x: 0, y: 0, z: -0, w: 1}
        inSlope: {x: 0, y: 0, z: 0, w: 0}
        outSlope: {x: 0, y: 0, z: 0, w: 0}
        tangentMode: 0
        weightedMode: 0
        inWeight: {x: 0.33333334, y: 0.33333334, z: 0.33333334, w: 0.33333334}
        outWeight: {x: 0.33333334, y: 0.33333334, z: 0.33333334, w: 0.33333334}
      - serializedVersion: 3
        time: 1.625
        value: {x: 0, y: 0, z: -0, w: 1}
        inSlope: {x: 0, y: 0, z: 0, w: 0}
        outSlope: {x: 0, y: 0, z: 0, w: 0}
        tangentMode: 0
        weightedMode: 0
        inWeight: {x: 0.33333334, y: 0.33333334, z: 0.33333334, w: 0.33333334}
        outWeight: {x: 0.33333334, y: 0.33333334, z: 0.33333334, w: 0.33333334}
      m_PreInfinity: 2
      m_PostInfinity: 2
      m_RotationOrder: 4
    path: Armature/Root/Spine1/Spine2
  - curve:
      serializedVersion: 2
      m_Curve:
      - serializedVersion: 3
        time: 0
        value: {x: -0.00000013910898, y: 0.000000061934706, z: 0.8316307, w: 0.5553291}
        inSlope: {x: 5.078391e-10, y: 0.0000000011405064, z: -0.0045547485, w: 0.006819248}
        outSlope: {x: 5.078391e-10, y: 0.0000000011405064, z: -0.0045547485, w: 0.006819248}
        tangentMode: 0
        weightedMode: 0
        inWeight: {x: 0.33333334, y: 0.33333334, z: 0.33333334, w: 0.33333334}
        outWeight: {x: 0.33333334, y: 0.33333334, z: 0.33333334, w: 0.33333334}
      - serializedVersion: 3
        time: 1.5416667
        value: {x: -0.00000013909393, y: 0.0000000619685, z: 0.83149576, w: 0.5555311}
        inSlope: {x: -4.1831016e-10, y: -9.380005e-10, z: 0.0037479352, w: -0.0056068823}
        outSlope: {x: -4.1831016e-10, y: -9.380005e-10, z: 0.0037479352, w: -0.0056068823}
        tangentMode: 0
        weightedMode: 0
        inWeight: {x: 0.33333334, y: 0.33333334, z: 0.33333334, w: 0.33333334}
        outWeight: {x: 0.33333334, y: 0.33333334, z: 0.33333334, w: 0.33333334}
      - serializedVersion: 3
        time: 1.625
        value: {x: -0.00000013910898, y: 0.000000061934706, z: 0.8316307, w: 0.5553291}
        inSlope: {x: -1.8008012e-10, y: -4.0552134e-10, z: 0.00161791, w: -0.0024247193}
        outSlope: {x: -1.8008012e-10, y: -4.0552134e-10, z: 0.00161791, w: -0.0024247193}
        tangentMode: 0
        weightedMode: 0
        inWeight: {x: 0.33333334, y: 0.33333334, z: 0.33333334, w: 0.33333334}
        outWeight: {x: 0.33333334, y: 0.33333334, z: 0.33333334, w: 0.33333334}
      m_PreInfinity: 2
      m_PostInfinity: 2
      m_RotationOrder: 4
    path: Armature/Root/Spine1/Spine2/Shoulder.L
  - curve:
      serializedVersion: 2
      m_Curve:
      - serializedVersion: 3
        time: 0
        value: {x: 0.664105, y: -0.18947776, z: -0.08967073, w: 0.71765035}
        inSlope: {x: -0.0016465187, y: -0.005925536, z: 0.005832374, w: 0.000685215}
        outSlope: {x: -0.0016465187, y: -0.005925536, z: 0.005832374, w: 0.000685215}
        tangentMode: 0
        weightedMode: 0
        inWeight: {x: 0.33333334, y: 0.33333334, z: 0.33333334, w: 0.33333334}
        outWeight: {x: 0.33333334, y: 0.33333334, z: 0.33333334, w: 0.33333334}
      - serializedVersion: 3
        time: 1
        value: {x: 0.65642995, y: -0.21532968, z: -0.06403501, w: 0.7201614}
        inSlope: {x: 0.012947552, y: 0.04094819, z: -0.040910326, w: -0.0032093506}
        outSlope: {x: 0.012947552, y: 0.04094819, z: -0.040910326, w: -0.0032093506}
        tangentMode: 0
        weightedMode: 0
        inWeight: {x: 0.33333334, y: 0.33333334, z: 0.33333334, w: 0.33333334}
        outWeight: {x: 0.33333334, y: 0.33333334, z: 0.33333334, w: 0.33333334}
      - serializedVersion: 3
        time: 1.625
        value: {x: 0.664105, y: -0.18947776, z: -0.08967073, w: 0.71765035}
        inSlope: {x: 0.0014891638, y: 0.005357628, z: -0.0052739433, w: -0.00061941205}
        outSlope: {x: 0.0014891638, y: 0.005357628, z: -0.0052739433, w: -0.00061941205}
        tangentMode: 0
        weightedMode: 0
        inWeight: {x: 0.33333334, y: 0.33333334, z: 0.33333334, w: 0.33333334}
        outWeight: {x: 0.33333334, y: 0.33333334, z: 0.33333334, w: 0.33333334}
      m_PreInfinity: 2
      m_PostInfinity: 2
      m_RotationOrder: 4
    path: Armature/Root/Spine1/Spine2/Shoulder.L/Upperarm.L
  - curve:
      serializedVersion: 2
      m_Curve:
      - serializedVersion: 3
        time: 0
        value: {x: -0.00026040815, y: 0.008625092, z: -0.17561316, w: 0.98442143}
        inSlope: {x: 0, y: 0, z: 0, w: 0}
        outSlope: {x: 0, y: 0, z: 0, w: 0}
        tangentMode: 0
        weightedMode: 0
        inWeight: {x: 0.33333334, y: 0.33333334, z: 0.33333334, w: 0.33333334}
        outWeight: {x: 0.33333334, y: 0.33333334, z: 0.33333334, w: 0.33333334}
      - serializedVersion: 3
        time: 1.625
        value: {x: -0.00026040815, y: 0.008625092, z: -0.17561316, w: 0.98442143}
        inSlope: {x: 0, y: 0, z: 0, w: 0}
        outSlope: {x: 0, y: 0, z: 0, w: 0}
        tangentMode: 0
        weightedMode: 0
        inWeight: {x: 0.33333334, y: 0.33333334, z: 0.33333334, w: 0.33333334}
        outWeight: {x: 0.33333334, y: 0.33333334, z: 0.33333334, w: 0.33333334}
      m_PreInfinity: 2
      m_PostInfinity: 2
      m_RotationOrder: 4
    path: Armature/Root/Spine1/Spine2/Shoulder.L/Upperarm.L/Lowerarm.L
  - curve:
      serializedVersion: 2
      m_Curve:
      - serializedVersion: 3
        time: 0
        value: {x: 0.000056535016, y: -0.005089967, z: 0.119254395, w: 0.99285066}
        inSlope: {x: 0, y: 0, z: 0, w: 0}
        outSlope: {x: 0, y: 0, z: 0, w: 0}
        tangentMode: 0
        weightedMode: 0
        inWeight: {x: 0.33333334, y: 0.33333334, z: 0.33333334, w: 0.33333334}
        outWeight: {x: 0.33333334, y: 0.33333334, z: 0.33333334, w: 0.33333334}
      - serializedVersion: 3
        time: 1.625
        value: {x: 0.000056535016, y: -0.005089967, z: 0.119254395, w: 0.99285066}
        inSlope: {x: 0, y: 0, z: 0, w: 0}
        outSlope: {x: 0, y: 0, z: 0, w: 0}
        tangentMode: 0
        weightedMode: 0
        inWeight: {x: 0.33333334, y: 0.33333334, z: 0.33333334, w: 0.33333334}
        outWeight: {x: 0.33333334, y: 0.33333334, z: 0.33333334, w: 0.33333334}
      m_PreInfinity: 2
      m_PostInfinity: 2
      m_RotationOrder: 4
    path: Armature/Root/Spine1/Spine2/Shoulder.L/Upperarm.L/Lowerarm.L/Hand.L
  - curve:
      serializedVersion: 2
      m_Curve:
      - serializedVersion: 3
        time: 0
        value: {x: 0, y: 0, z: -0, w: 1}
        inSlope: {x: 0.007677627, y: -0, z: 0, w: -0.0000014305115}
        outSlope: {x: 0.007677627, y: -0, z: 0, w: -0.0000014305115}
        tangentMode: 0
        weightedMode: 0
        inWeight: {x: 0.33333334, y: 0.33333334, z: 0.33333334, w: 0.33333334}
        outWeight: {x: 0.33333334, y: 0.33333334, z: 0.33333334, w: 0.33333334}
      - serializedVersion: 3
        time: 1
        value: {x: 0.03366439, y: -0, z: -0, w: 0.9994332}
        inSlope: {x: -0.053599045, y: 0, z: 0, w: 0.0017974367}
        outSlope: {x: -0.053599045, y: 0, z: 0, w: 0.0017974367}
        tangentMode: 0
        weightedMode: 0
        inWeight: {x: 0.33333334, y: 0.33333334, z: 0.33333334, w: 0.33333334}
        outWeight: {x: 0.33333334, y: 0.33333334, z: 0.33333334, w: 0.33333334}
      - serializedVersion: 3
        time: 1.625
        value: {x: 0, y: 0, z: -0, w: 1}
        inSlope: {x: -0.0069417786, y: 0, z: 0, w: 0}
        outSlope: {x: -0.0069417786, y: 0, z: 0, w: 0}
        tangentMode: 0
        weightedMode: 0
        inWeight: {x: 0.33333334, y: 0.33333334, z: 0.33333334, w: 0.33333334}
        outWeight: {x: 0.33333334, y: 0.33333334, z: 0.33333334, w: 0.33333334}
      m_PreInfinity: 2
      m_PostInfinity: 2
      m_RotationOrder: 4
    path: Armature/Root/Spine1/Spine2/Head
  - curve:
      serializedVersion: 2
      m_Curve:
      - serializedVersion: 3
        time: 0
        value: {x: -0.00000013910898, y: -0.000000061934706, z: -0.8316307, w: 0.5553291}
        inSlope: {x: 0.0000000012162218, y: -0.0000000027288252, z: 0.010901928, w: 0.016312122}
        outSlope: {x: 0.0000000012162218, y: -0.0000000027288252, z: 0.010901928, w: 0.016312122}
        tangentMode: 0
        weightedMode: 0
        inWeight: {x: 0.33333334, y: 0.33333334, z: 0.33333334, w: 0.33333334}
        outWeight: {x: 0.33333334, y: 0.33333334, z: 0.33333334, w: 0.33333334}
      - serializedVersion: 3
        time: 1.0833334
        value: {x: -0.00000013780677, y: -0.0000000647805, z: -0.8200423, w: 0.57230294}
        inSlope: {x: -0.0000000030248686, y: 0.0000000064359886, z: -0.026725557, w: -0.03829912}
        outSlope: {x: -0.0000000030248686, y: 0.0000000064359886, z: -0.026725557, w: -0.03829912}
        tangentMode: 0
        weightedMode: 0
        inWeight: {x: 0.33333334, y: 0.33333334, z: 0.33333334, w: 0.33333334}
        outWeight: {x: 0.33333334, y: 0.33333334, z: 0.33333334, w: 0.33333334}
      - serializedVersion: 3
        time: 1.625
        value: {x: -0.00000013910898, y: -0.000000061934706, z: -0.8316307, w: 0.5553291}
        inSlope: {x: -8.615197e-10, y: 0.0000000019338149, z: -0.0077247694, w: -0.011559974}
        outSlope: {x: -8.615197e-10, y: 0.0000000019338149, z: -0.0077247694, w: -0.011559974}
        tangentMode: 0
        weightedMode: 0
        inWeight: {x: 0.33333334, y: 0.33333334, z: 0.33333334, w: 0.33333334}
        outWeight: {x: 0.33333334, y: 0.33333334, z: 0.33333334, w: 0.33333334}
      m_PreInfinity: 2
      m_PostInfinity: 2
      m_RotationOrder: 4
    path: Armature/Root/Spine1/Spine2/Shoulder.R
  - curve:
      serializedVersion: 2
      m_Curve:
      - serializedVersion: 3
        time: 0
        value: {x: -0.11886822, y: 0.14588015, z: -0.2812601, w: 0.9410006}
        inSlope: {x: 0.00096809864, y: 0.00078856945, z: -0.0062441826, w: -0.0018668175}
        outSlope: {x: 0.00096809864, y: 0.00078856945, z: -0.0062441826, w: -0.0018668175}
        tangentMode: 0
        weightedMode: 0
        inWeight: {x: 0.33333334, y: 0.33333334, z: 0.33333334, w: 0.33333334}
        outWeight: {x: 0.33333334, y: 0.33333334, z: 0.33333334, w: 0.33333334}
      - serializedVersion: 3
        time: 1
        value: {x: -0.11457375, y: 0.14927667, z: -0.30851796, w: 0.9324194}
        inSlope: {x: -0.0069176815, y: -0.005310771, z: 0.043215726, w: 0.014292948}
        outSlope: {x: -0.0069176815, y: -0.005310771, z: 0.043215726, w: 0.014292948}
        tangentMode: 0
        weightedMode: 0
        inWeight: {x: 0.33333334, y: 0.33333334, z: 0.33333334, w: 0.33333334}
        outWeight: {x: 0.33333334, y: 0.33333334, z: 0.33333334, w: 0.33333334}
      - serializedVersion: 3
        time: 1.625
        value: {x: -0.11886822, y: 0.14588015, z: -0.2812601, w: 0.9410006}
        inSlope: {x: -0.00087565265, y: -0.0007134683, z: 0.005647665, w: 0.0016894357}
        outSlope: {x: -0.00087565265, y: -0.0007134683, z: 0.005647665, w: 0.0016894357}
        tangentMode: 0
        weightedMode: 0
        inWeight: {x: 0.33333334, y: 0.33333334, z: 0.33333334, w: 0.33333334}
        outWeight: {x: 0.33333334, y: 0.33333334, z: 0.33333334, w: 0.33333334}
      m_PreInfinity: 2
      m_PostInfinity: 2
      m_RotationOrder: 4
    path: Armature/Root/Spine1/Spine2/Shoulder.R/Upperarm.R
  - curve:
      serializedVersion: 2
      m_Curve:
      - serializedVersion: 3
        time: 0
        value: {x: 0.25211895, y: 0.035730146, z: -0.032337695, w: 0.9664956}
        inSlope: {x: 0, y: 0, z: 0, w: 0}
        outSlope: {x: 0, y: 0, z: 0, w: 0}
        tangentMode: 0
        weightedMode: 0
        inWeight: {x: 0.33333334, y: 0.33333334, z: 0.33333334, w: 0.33333334}
        outWeight: {x: 0.33333334, y: 0.33333334, z: 0.33333334, w: 0.33333334}
      - serializedVersion: 3
        time: 1.625
        value: {x: 0.25211895, y: 0.035730146, z: -0.032337695, w: 0.9664956}
        inSlope: {x: 0, y: 0, z: 0, w: 0}
        outSlope: {x: 0, y: 0, z: 0, w: 0}
        tangentMode: 0
        weightedMode: 0
        inWeight: {x: 0.33333334, y: 0.33333334, z: 0.33333334, w: 0.33333334}
        outWeight: {x: 0.33333334, y: 0.33333334, z: 0.33333334, w: 0.33333334}
      m_PreInfinity: 2
      m_PostInfinity: 2
      m_RotationOrder: 4
    path: Armature/Root/Spine1/Spine2/Shoulder.R/Upperarm.R/Lowerarm.R
  - curve:
      serializedVersion: 2
      m_Curve:
      - serializedVersion: 3
        time: 0
        value: {x: -0.000000005122591, y: 0.000000008149578, z: -0.011109115, w: 0.9999383}
        inSlope: {x: 0, y: 0, z: 0, w: 0}
        outSlope: {x: 0, y: 0, z: 0, w: 0}
        tangentMode: 0
        weightedMode: 0
        inWeight: {x: 0.33333334, y: 0.33333334, z: 0.33333334, w: 0.33333334}
        outWeight: {x: 0.33333334, y: 0.33333334, z: 0.33333334, w: 0.33333334}
      - serializedVersion: 3
        time: 1.625
        value: {x: -0.000000005122591, y: 0.000000008149578, z: -0.011109115, w: 0.9999383}
        inSlope: {x: 0, y: 0, z: 0, w: 0}
        outSlope: {x: 0, y: 0, z: 0, w: 0}
        tangentMode: 0
        weightedMode: 0
        inWeight: {x: 0.33333334, y: 0.33333334, z: 0.33333334, w: 0.33333334}
        outWeight: {x: 0.33333334, y: 0.33333334, z: 0.33333334, w: 0.33333334}
      m_PreInfinity: 2
      m_PostInfinity: 2
      m_RotationOrder: 4
    path: Armature/Root/Spine1/Spine2/Shoulder.R/Upperarm.R/Lowerarm.R/Hand.R
  - curve:
      serializedVersion: 2
      m_Curve:
      - serializedVersion: 3
        time: 0
        value: {x: -0.706318, y: -0.013853243, z: 0.013878837, w: 0.707623}
        inSlope: {x: 0.0015821457, y: -0.005914964, z: 0.0059843436, w: 0.0013432503}
        outSlope: {x: 0.0015821457, y: -0.005914964, z: 0.0059843436, w: 0.0013432503}
        tangentMode: 0
        weightedMode: 0
        inWeight: {x: 0.33333334, y: 0.33333334, z: 0.33333334, w: 0.33333334}
        outWeight: {x: 0.33333334, y: 0.33333334, z: 0.33333334, w: 0.33333334}
      - serializedVersion: 3
        time: 1
        value: {x: -0.6988643, y: -0.039544314, z: 0.04034529, w: 0.7130198}
        inSlope: {x: -0.0127115175, y: 0.040499993, z: -0.042490058, w: -0.007823463}
        outSlope: {x: -0.0127115175, y: 0.040499993, z: -0.042490058, w: -0.007823463}
        tangentMode: 0
        weightedMode: 0
        inWeight: {x: 0.33333334, y: 0.33333334, z: 0.33333334, w: 0.33333334}
        outWeight: {x: 0.33333334, y: 0.33333334, z: 0.33333334, w: 0.33333334}
      - serializedVersion: 3
        time: 1.625
        value: {x: -0.706318, y: -0.013853243, z: 0.013878837, w: 0.707623}
        inSlope: {x: -0.0014290824, y: 0.005348017, z: -0.005410669, w: -0.0012159359}
        outSlope: {x: -0.0014290824, y: 0.005348017, z: -0.005410669, w: -0.0012159359}
        tangentMode: 0
        weightedMode: 0
        inWeight: {x: 0.33333334, y: 0.33333334, z: 0.33333334, w: 0.33333334}
        outWeight: {x: 0.33333334, y: 0.33333334, z: 0.33333334, w: 0.33333334}
      m_PreInfinity: 2
      m_PostInfinity: 2
      m_RotationOrder: 4
    path: Torch
  m_CompressedRotationCurves: []
  m_EulerCurves: []
  m_PositionCurves:
  - curve:
      serializedVersion: 2
      m_Curve:
      - serializedVersion: 3
        time: 0
        value: {x: 0.043430842, y: 0, z: 0}
        inSlope: {x: -3.469447e-16, y: 0.0006387234, z: -0.013806481}
        outSlope: {x: -3.469447e-16, y: 0.0006387234, z: -0.013806481}
        tangentMode: 0
        weightedMode: 0
        inWeight: {x: 0.33333334, y: 0.33333334, z: 0.33333334}
        outWeight: {x: 0.33333334, y: 0.33333334, z: 0.33333334}
      - serializedVersion: 3
        time: 0.041666668
        value: {x: 0.043430842, y: 0.000026613474, z: -0.00057527004}
        inSlope: {x: -1.4869059e-16, y: 0.0006387234, z: -0.013806481}
        outSlope: {x: -3.469447e-16, y: 0.0006387234, z: -0.039412126}
        tangentMode: 0
        weightedMode: 0
        inWeight: {x: 0.33333334, y: 0.33333334, z: 0.33333334}
        outWeight: {x: 0.33333334, y: 0.33333334, z: 0.33333334}
      - serializedVersion: 3
        time: 0.083333336
        value: {x: 0.043430842, y: 0.000053226948, z: -0.002217442}
        inSlope: {x: -1.4869059e-16, y: 0.0006387234, z: -0.039412126}
        outSlope: {x: -3.4694472e-16, y: 0.00063872343, z: -0.06200736}
        tangentMode: 0
        weightedMode: 0
        inWeight: {x: 0.33333334, y: 0.33333334, z: 0.33333334}
        outWeight: {x: 0.33333334, y: 0.33333334, z: 0.33333334}
      - serializedVersion: 3
        time: 0.125
        value: {x: 0.043430842, y: 0.00007984042, z: -0.004801082}
        inSlope: {x: -1.486906e-16, y: 0.00063872343, z: -0.06200736}
        outSlope: {x: -3.4694467e-16, y: 0.0006387233, z: -0.08159175}
        tangentMode: 0
        weightedMode: 0
        inWeight: {x: 0.33333334, y: 0.33333334, z: 0.33333334}
        outWeight: {x: 0.33333334, y: 0.33333334, z: 0.33333334}
      - serializedVersion: 3
        time: 0.16666667
        value: {x: 0.043430842, y: 0.000106453896, z: -0.008200739}
        inSlope: {x: -1.4869057e-16, y: 0.0006387233, z: -0.08159175}
        outSlope: {x: -3.4694477e-16, y: 0.00063872355, z: -0.098163575}
        tangentMode: 0
        weightedMode: 0
        inWeight: {x: 0.33333334, y: 0.33333334, z: 0.33333334}
        outWeight: {x: 0.33333334, y: 0.33333334, z: 0.33333334}
      - serializedVersion: 3
        time: 0.20833333
        value: {x: 0.043430842, y: 0.00013306737, z: -0.012290887}
        inSlope: {x: -1.4869063e-16, y: 0.00063872355, z: -0.098163575}
        outSlope: {x: -3.4694467e-16, y: 0.0006387233, z: -0.11172018}
        tangentMode: 0
        weightedMode: 0
        inWeight: {x: 0.33333334, y: 0.33333334, z: 0.33333334}
        outWeight: {x: 0.33333334, y: 0.33333334, z: 0.33333334}
      - serializedVersion: 3
        time: 0.25
        value: {x: 0.043430842, y: 0.00015968084, z: -0.016945895}
        inSlope: {x: -1.4869057e-16, y: 0.0006387233, z: -0.11172018}
        outSlope: {x: -3.4694477e-16, y: 0.002652169, z: -0.12225905}
        tangentMode: 0
        weightedMode: 0
        inWeight: {x: 0.33333334, y: 0.33333334, z: 0.33333334}
        outWeight: {x: 0.33333334, y: 0.33333334, z: 0.33333334}
      - serializedVersion: 3
        time: 0.29166666
        value: {x: 0.043430842, y: 0.00027018785, z: -0.02204002}
        inSlope: {x: -1.4869063e-16, y: 0.002652169, z: -0.12225905}
        outSlope: {x: -3.4694454e-16, y: 0.0035719855, z: -0.12977701}
        tangentMode: 0
        weightedMode: 0
        inWeight: {x: 0.33333334, y: 0.33333334, z: 0.33333334}
        outWeight: {x: 0.33333334, y: 0.33333334, z: 0.33333334}
      - serializedVersion: 3
        time: 0.33333334
        value: {x: 0.043430842, y: 0.00041902065, z: -0.027447399}
        inSlope: {x: -1.4869052e-16, y: 0.0035719855, z: -0.12977701}
        outSlope: {x: -3.4694477e-16, y: 0.0045189867, z: -0.13427436}
        tangentMode: 0
        weightedMode: 0
        inWeight: {x: 0.33333334, y: 0.33333334, z: 0.33333334}
        outWeight: {x: 0.33333334, y: 0.33333334, z: 0.33333334}
      - serializedVersion: 3
        time: 0.375
        value: {x: 0.043430842, y: 0.0006073117, z: -0.033042163}
        inSlope: {x: -1.4869063e-16, y: 0.0045189867, z: -0.13427436}
        outSlope: {x: -3.4694477e-16, y: 0.0054202094, z: -0.13575056}
        tangentMode: 0
        weightedMode: 0
        inWeight: {x: 0.33333334, y: 0.33333334, z: 0.33333334}
        outWeight: {x: 0.33333334, y: 0.33333334, z: 0.33333334}
      - serializedVersion: 3
        time: 0.41666666
        value: {x: 0.043430842, y: 0.0008331537, z: -0.038698435}
        inSlope: {x: -1.4869063e-16, y: 0.0054202094, z: -0.13575056}
        outSlope: {x: -3.4694454e-16, y: 0.0062012644, z: -0.13420704}
        tangentMode: 0
        weightedMode: 0
        inWeight: {x: 0.33333334, y: 0.33333334, z: 0.33333334}
        outWeight: {x: 0.33333334, y: 0.33333334, z: 0.33333334}
      - serializedVersion: 3
        time: 0.45833334
        value: {x: 0.043430842, y: 0.0010915399, z: -0.044290397}
        inSlope: {x: -1.4869052e-16, y: 0.0062012644, z: -0.13420704}
        outSlope: {x: -3.4694477e-16, y: 0.0067849173, z: -0.12964916}
        tangentMode: 0
        weightedMode: 0
        inWeight: {x: 0.33333334, y: 0.33333334, z: 0.33333334}
        outWeight: {x: 0.33333334, y: 0.33333334, z: 0.33333334}
      - serializedVersion: 3
        time: 0.625
        value: {x: 0.043430842, y: 0.0022455454, z: -0.06350622}
        inSlope: {x: -1.4869052e-16, y: 0.0067119566, z: -0.09794001}
        outSlope: {x: -3.4694454e-16, y: 0.0059165927, z: -0.08137908}
        tangentMode: 0
        weightedMode: 0
        inWeight: {x: 0.33333334, y: 0.33333334, z: 0.33333334}
        outWeight: {x: 0.33333334, y: 0.33333334, z: 0.33333334}
      - serializedVersion: 3
        time: 0.6666667
        value: {x: 0.043430842, y: 0.0024920702, z: -0.06689702}
        inSlope: {x: -1.4869052e-16, y: 0.0059165927, z: -0.08137908}
        outSlope: {x: -3.4694504e-16, y: 0.004702096, z: -0.061829805}
        tangentMode: 0
        weightedMode: 0
        inWeight: {x: 0.33333334, y: 0.33333334, z: 0.33333334}
        outWeight: {x: 0.33333334, y: 0.33333334, z: 0.33333334}
      - serializedVersion: 3
        time: 0.7083333
        value: {x: 0.043430842, y: 0.0026879907, z: -0.06947326}
        inSlope: {x: -1.4869073e-16, y: 0.004702096, z: -0.061829805}
        outSlope: {x: -3.4694454e-16, y: 0.0030813203, z: -0.039291304}
        tangentMode: 0
        weightedMode: 0
        inWeight: {x: 0.33333334, y: 0.33333334, z: 0.33333334}
        outWeight: {x: 0.33333334, y: 0.33333334, z: 0.33333334}
      - serializedVersion: 3
        time: 0.75
        value: {x: 0.043430842, y: 0.002816379, z: -0.0711104}
        inSlope: {x: -1.4869052e-16, y: 0.0030813203, z: -0.039291304}
        outSlope: {x: -3.4694454e-16, y: 0.000052213643, z: -0.013762766}
        tangentMode: 0
        weightedMode: 0
        inWeight: {x: 0.33333334, y: 0.33333334, z: 0.33333334}
        outWeight: {x: 0.33333334, y: 0.33333334, z: 0.33333334}
      - serializedVersion: 3
        time: 0.8333333
        value: {x: 0.043430842, y: 0.0028207302, z: -0.07116536}
        inSlope: {x: -1.4869073e-16, y: 0.00005221372, z: 0.012443674}
        outSlope: {x: -3.4694454e-16, y: -0.002798079, z: 0.035618108}
        tangentMode: 0
        weightedMode: 0
        inWeight: {x: 0.33333334, y: 0.33333334, z: 0.33333334}
        outWeight: {x: 0.33333334, y: 0.33333334, z: 0.33333334}
      - serializedVersion: 3
        time: 0.875
        value: {x: 0.043430842, y: 0.0027041435, z: -0.06968127}
        inSlope: {x: -1.4869052e-16, y: -0.002798079, z: 0.035618108}
        outSlope: {x: -3.4694454e-16, y: -0.004295824, z: 0.056228373}
        tangentMode: 0
        weightedMode: 0
        inWeight: {x: 0.33333334, y: 0.33333334, z: 0.33333334}
        outWeight: {x: 0.33333334, y: 0.33333334, z: 0.33333334}
      - serializedVersion: 3
        time: 0.9583333
        value: {x: 0.043430842, y: 0.002298057, z: -0.06424356}
        inSlope: {x: -1.4869073e-16, y: -0.005450254, z: 0.0742767}
        outSlope: {x: -3.4694454e-16, y: -0.0062427493, z: 0.08976205}
        tangentMode: 0
        weightedMode: 0
        inWeight: {x: 0.33333334, y: 0.33333334, z: 0.33333334}
        outWeight: {x: 0.33333334, y: 0.33333334, z: 0.33333334}
      - serializedVersion: 3
        time: 1.125
        value: {x: 0.043430842, y: 0.0012022257, z: -0.046481036}
        inSlope: {x: -1.4869073e-16, y: -0.006593234, z: 0.12081691}
        outSlope: {x: -3.4694504e-16, y: -0.0061540664, z: 0.12601835}
        tangentMode: 0
        weightedMode: 0
        inWeight: {x: 0.33333334, y: 0.33333334, z: 0.33333334}
        outWeight: {x: 0.33333334, y: 0.33333334, z: 0.33333334}
      - serializedVersion: 3
        time: 1.1666666
        value: {x: 0.043430842, y: 0.0009458065, z: -0.041230276}
        inSlope: {x: -1.4869073e-16, y: -0.0061540664, z: 0.12601835}
        outSlope: {x: -3.4694403e-16, y: -0.005520333, z: 0.12863511}
        tangentMode: 0
        weightedMode: 0
        inWeight: {x: 0.33333334, y: 0.33333334, z: 0.33333334}
        outWeight: {x: 0.33333334, y: 0.33333334, z: 0.33333334}
      - serializedVersion: 3
        time: 1.2083334
        value: {x: 0.043430842, y: 0.0007157922, z: -0.03587047}
        inSlope: {x: -1.4869031e-16, y: -0.005520333, z: 0.12863511}
        outSlope: {x: -3.4694504e-16, y: -0.004752164, z: 0.12866627}
        tangentMode: 0
        weightedMode: 0
        inWeight: {x: 0.33333334, y: 0.33333334, z: 0.33333334}
        outWeight: {x: 0.33333334, y: 0.33333334, z: 0.33333334}
      - serializedVersion: 3
        time: 1.25
        value: {x: 0.043430842, y: 0.00051778555, z: -0.03050938}
        inSlope: {x: -1.4869073e-16, y: -0.004752164, z: 0.12866627}
        outSlope: {x: -3.4694504e-16, y: -0.003913883, z: 0.12610735}
        tangentMode: 0
        weightedMode: 0
        inWeight: {x: 0.33333334, y: 0.33333334, z: 0.33333334}
        outWeight: {x: 0.33333334, y: 0.33333334, z: 0.33333334}
      - serializedVersion: 3
        time: 1.2916666
        value: {x: 0.043430842, y: 0.00035470724, z: -0.025254913}
        inSlope: {x: -1.4869073e-16, y: -0.003913883, z: 0.12610735}
        outSlope: {x: -3.4694403e-16, y: -0.0030584277, z: 0.12095801}
        tangentMode: 0
        weightedMode: 0
        inWeight: {x: 0.33333334, y: 0.33333334, z: 0.33333334}
        outWeight: {x: 0.33333334, y: 0.33333334, z: 0.33333334}
      - serializedVersion: 3
        time: 1.3333334
        value: {x: 0.043430842, y: 0.00022727251, z: -0.020214986}
        inSlope: {x: -1.4869031e-16, y: -0.0030584277, z: 0.12095801}
        outSlope: {x: -3.4694504e-16, y: -0.0018889921, z: 0.113218404}
        tangentMode: 0
        weightedMode: 0
        inWeight: {x: 0.33333334, y: 0.33333334, z: 0.33333334}
        outWeight: {x: 0.33333334, y: 0.33333334, z: 0.33333334}
      - serializedVersion: 3
        time: 1.375
        value: {x: 0.043430842, y: 0.00014856458, z: -0.015497557}
        inSlope: {x: -1.4869073e-16, y: -0.0018889921, z: 0.113218404}
        outSlope: {x: -3.4694504e-16, y: -0.0018889921, z: 0.102890104}
        tangentMode: 0
        weightedMode: 0
        inWeight: {x: 0.33333334, y: 0.33333334, z: 0.33333334}
        outWeight: {x: 0.33333334, y: 0.33333334, z: 0.33333334}
      - serializedVersion: 3
        time: 1.4166666
        value: {x: 0.043430842, y: 0.000069856644, z: -0.011210473}
        inSlope: {x: -1.4869073e-16, y: -0.0018889921, z: 0.102890104}
        outSlope: {x: -3.4694403e-16, y: -0.00033531155, z: 0.08997407}
        tangentMode: 0
        weightedMode: 0
        inWeight: {x: 0.33333334, y: 0.33333334, z: 0.33333334}
        outWeight: {x: 0.33333334, y: 0.33333334, z: 0.33333334}
      - serializedVersion: 3
        time: 1.4583334
        value: {x: 0.043430842, y: 0.000055885303, z: -0.0074615465}
        inSlope: {x: -1.4869031e-16, y: -0.00033531155, z: 0.08997407}
        outSlope: {x: -3.4694504e-16, y: -0.0003353119, z: 0.074474424}
        tangentMode: 0
        weightedMode: 0
        inWeight: {x: 0.33333334, y: 0.33333334, z: 0.33333334}
        outWeight: {x: 0.33333334, y: 0.33333334, z: 0.33333334}
      - serializedVersion: 3
        time: 1.5
        value: {x: 0.043430842, y: 0.000041913987, z: -0.0043584486}
        inSlope: {x: -1.4869073e-16, y: -0.0003353119, z: 0.074474424}
        outSlope: {x: -3.4694504e-16, y: -0.0003353119, z: 0.056391794}
        tangentMode: 0
        weightedMode: 0
        inWeight: {x: 0.33333334, y: 0.33333334, z: 0.33333334}
        outWeight: {x: 0.33333334, y: 0.33333334, z: 0.33333334}
      - serializedVersion: 3
        time: 1.5416666
        value: {x: 0.043430842, y: 0.000027942671, z: -0.0020087927}
        inSlope: {x: -1.4869073e-16, y: -0.0003353119, z: 0.056391794}
        outSlope: {x: -3.4694403e-16, y: -0.00033531187, z: 0.03572774}
        tangentMode: 0
        weightedMode: 0
        inWeight: {x: 0.33333334, y: 0.33333334, z: 0.33333334}
        outWeight: {x: 0.33333334, y: 0.33333334, z: 0.33333334}
      - serializedVersion: 3
        time: 1.5833334
        value: {x: 0.043430842, y: 0.000013971317, z: -0.00052013405}
        inSlope: {x: -1.4869031e-16, y: -0.00033531187, z: 0.03572774}
        outSlope: {x: -3.4694504e-16, y: -0.00033531192, z: 0.012483229}
        tangentMode: 0
        weightedMode: 0
        inWeight: {x: 0.33333334, y: 0.33333334, z: 0.33333334}
        outWeight: {x: 0.33333334, y: 0.33333334, z: 0.33333334}
      - serializedVersion: 3
        time: 1.625
        value: {x: 0.043430842, y: 0, z: 0}
        inSlope: {x: -1.4869073e-16, y: -0.00033531192, z: 0.012483229}
        outSlope: {x: -1.4869073e-16, y: -0.00033531192, z: 0.012483229}
        tangentMode: 0
        weightedMode: 0
        inWeight: {x: 0.33333334, y: 0.33333334, z: 0.33333334}
        outWeight: {x: 0.33333334, y: 0.33333334, z: 0.33333334}
      m_PreInfinity: 2
      m_PostInfinity: 2
      m_RotationOrder: 4
    path: Hat
  - curve:
      serializedVersion: 2
      m_Curve:
      - serializedVersion: 3
        time: 0
        value: {x: 0.043430842, y: 0, z: 0}
        inSlope: {x: -3.469447e-16, y: 0.0006387234, z: -0.013806481}
        outSlope: {x: -3.469447e-16, y: 0.0006387234, z: -0.013806481}
        tangentMode: 0
        weightedMode: 0
        inWeight: {x: 0.33333334, y: 0.33333334, z: 0.33333334}
        outWeight: {x: 0.33333334, y: 0.33333334, z: 0.33333334}
      - serializedVersion: 3
        time: 0.041666668
        value: {x: 0.043430842, y: 0.000026613474, z: -0.00057527004}
        inSlope: {x: -1.4869059e-16, y: 0.0006387234, z: -0.013806481}
        outSlope: {x: -3.469447e-16, y: 0.0006387234, z: -0.039412126}
        tangentMode: 0
        weightedMode: 0
        inWeight: {x: 0.33333334, y: 0.33333334, z: 0.33333334}
        outWeight: {x: 0.33333334, y: 0.33333334, z: 0.33333334}
      - serializedVersion: 3
        time: 0.083333336
        value: {x: 0.043430842, y: 0.000053226948, z: -0.002217442}
        inSlope: {x: -1.4869059e-16, y: 0.0006387234, z: -0.039412126}
        outSlope: {x: -3.4694472e-16, y: 0.00063872343, z: -0.06200736}
        tangentMode: 0
        weightedMode: 0
        inWeight: {x: 0.33333334, y: 0.33333334, z: 0.33333334}
        outWeight: {x: 0.33333334, y: 0.33333334, z: 0.33333334}
      - serializedVersion: 3
        time: 0.125
        value: {x: 0.043430842, y: 0.00007984042, z: -0.004801082}
        inSlope: {x: -1.486906e-16, y: 0.00063872343, z: -0.06200736}
        outSlope: {x: -3.4694467e-16, y: 0.0006387233, z: -0.08159175}
        tangentMode: 0
        weightedMode: 0
        inWeight: {x: 0.33333334, y: 0.33333334, z: 0.33333334}
        outWeight: {x: 0.33333334, y: 0.33333334, z: 0.33333334}
      - serializedVersion: 3
        time: 0.16666667
        value: {x: 0.043430842, y: 0.000106453896, z: -0.008200739}
        inSlope: {x: -1.4869057e-16, y: 0.0006387233, z: -0.08159175}
        outSlope: {x: -3.4694477e-16, y: 0.00063872355, z: -0.098163575}
        tangentMode: 0
        weightedMode: 0
        inWeight: {x: 0.33333334, y: 0.33333334, z: 0.33333334}
        outWeight: {x: 0.33333334, y: 0.33333334, z: 0.33333334}
      - serializedVersion: 3
        time: 0.20833333
        value: {x: 0.043430842, y: 0.00013306737, z: -0.012290887}
        inSlope: {x: -1.4869063e-16, y: 0.00063872355, z: -0.098163575}
        outSlope: {x: -3.4694467e-16, y: 0.0006387233, z: -0.11172018}
        tangentMode: 0
        weightedMode: 0
        inWeight: {x: 0.33333334, y: 0.33333334, z: 0.33333334}
        outWeight: {x: 0.33333334, y: 0.33333334, z: 0.33333334}
      - serializedVersion: 3
        time: 0.25
        value: {x: 0.043430842, y: 0.00015968084, z: -0.016945895}
        inSlope: {x: -1.4869057e-16, y: 0.0006387233, z: -0.11172018}
        outSlope: {x: -3.4694477e-16, y: 0.002652169, z: -0.12225905}
        tangentMode: 0
        weightedMode: 0
        inWeight: {x: 0.33333334, y: 0.33333334, z: 0.33333334}
        outWeight: {x: 0.33333334, y: 0.33333334, z: 0.33333334}
      - serializedVersion: 3
        time: 0.29166666
        value: {x: 0.043430842, y: 0.00027018785, z: -0.02204002}
        inSlope: {x: -1.4869063e-16, y: 0.002652169, z: -0.12225905}
        outSlope: {x: -3.4694454e-16, y: 0.0035719855, z: -0.12977701}
        tangentMode: 0
        weightedMode: 0
        inWeight: {x: 0.33333334, y: 0.33333334, z: 0.33333334}
        outWeight: {x: 0.33333334, y: 0.33333334, z: 0.33333334}
      - serializedVersion: 3
        time: 0.33333334
        value: {x: 0.043430842, y: 0.00041902065, z: -0.027447399}
        inSlope: {x: -1.4869052e-16, y: 0.0035719855, z: -0.12977701}
        outSlope: {x: -3.4694477e-16, y: 0.0045189867, z: -0.13427436}
        tangentMode: 0
        weightedMode: 0
        inWeight: {x: 0.33333334, y: 0.33333334, z: 0.33333334}
        outWeight: {x: 0.33333334, y: 0.33333334, z: 0.33333334}
      - serializedVersion: 3
        time: 0.375
        value: {x: 0.043430842, y: 0.0006073117, z: -0.033042163}
        inSlope: {x: -1.4869063e-16, y: 0.0045189867, z: -0.13427436}
        outSlope: {x: -3.4694477e-16, y: 0.0054202094, z: -0.13575056}
        tangentMode: 0
        weightedMode: 0
        inWeight: {x: 0.33333334, y: 0.33333334, z: 0.33333334}
        outWeight: {x: 0.33333334, y: 0.33333334, z: 0.33333334}
      - serializedVersion: 3
        time: 0.41666666
        value: {x: 0.043430842, y: 0.0008331537, z: -0.038698435}
        inSlope: {x: -1.4869063e-16, y: 0.0054202094, z: -0.13575056}
        outSlope: {x: -3.4694454e-16, y: 0.0062012644, z: -0.13420704}
        tangentMode: 0
        weightedMode: 0
        inWeight: {x: 0.33333334, y: 0.33333334, z: 0.33333334}
        outWeight: {x: 0.33333334, y: 0.33333334, z: 0.33333334}
      - serializedVersion: 3
        time: 0.45833334
        value: {x: 0.043430842, y: 0.0010915399, z: -0.044290397}
        inSlope: {x: -1.4869052e-16, y: 0.0062012644, z: -0.13420704}
        outSlope: {x: -3.4694477e-16, y: 0.0067849173, z: -0.12964916}
        tangentMode: 0
        weightedMode: 0
        inWeight: {x: 0.33333334, y: 0.33333334, z: 0.33333334}
        outWeight: {x: 0.33333334, y: 0.33333334, z: 0.33333334}
      - serializedVersion: 3
        time: 0.625
        value: {x: 0.043430842, y: 0.0022455454, z: -0.06350622}
        inSlope: {x: -1.4869052e-16, y: 0.0067119566, z: -0.09794001}
        outSlope: {x: -3.4694454e-16, y: 0.0059165927, z: -0.08137908}
        tangentMode: 0
        weightedMode: 0
        inWeight: {x: 0.33333334, y: 0.33333334, z: 0.33333334}
        outWeight: {x: 0.33333334, y: 0.33333334, z: 0.33333334}
      - serializedVersion: 3
        time: 0.6666667
        value: {x: 0.043430842, y: 0.0024920702, z: -0.06689702}
        inSlope: {x: -1.4869052e-16, y: 0.0059165927, z: -0.08137908}
        outSlope: {x: -3.4694504e-16, y: 0.004702096, z: -0.061829805}
        tangentMode: 0
        weightedMode: 0
        inWeight: {x: 0.33333334, y: 0.33333334, z: 0.33333334}
        outWeight: {x: 0.33333334, y: 0.33333334, z: 0.33333334}
      - serializedVersion: 3
        time: 0.7083333
        value: {x: 0.043430842, y: 0.0026879907, z: -0.06947326}
        inSlope: {x: -1.4869073e-16, y: 0.004702096, z: -0.061829805}
        outSlope: {x: -3.4694454e-16, y: 0.0030813203, z: -0.039291304}
        tangentMode: 0
        weightedMode: 0
        inWeight: {x: 0.33333334, y: 0.33333334, z: 0.33333334}
        outWeight: {x: 0.33333334, y: 0.33333334, z: 0.33333334}
      - serializedVersion: 3
        time: 0.75
        value: {x: 0.043430842, y: 0.002816379, z: -0.0711104}
        inSlope: {x: -1.4869052e-16, y: 0.0030813203, z: -0.039291304}
        outSlope: {x: -3.4694454e-16, y: 0.000052213643, z: -0.013762766}
        tangentMode: 0
        weightedMode: 0
        inWeight: {x: 0.33333334, y: 0.33333334, z: 0.33333334}
        outWeight: {x: 0.33333334, y: 0.33333334, z: 0.33333334}
      - serializedVersion: 3
        time: 0.8333333
        value: {x: 0.043430842, y: 0.0028207302, z: -0.07116536}
        inSlope: {x: -1.4869073e-16, y: 0.00005221372, z: 0.012443674}
        outSlope: {x: -3.4694454e-16, y: -0.002798079, z: 0.035618108}
        tangentMode: 0
        weightedMode: 0
        inWeight: {x: 0.33333334, y: 0.33333334, z: 0.33333334}
        outWeight: {x: 0.33333334, y: 0.33333334, z: 0.33333334}
      - serializedVersion: 3
        time: 0.875
        value: {x: 0.043430842, y: 0.0027041435, z: -0.06968127}
        inSlope: {x: -1.4869052e-16, y: -0.002798079, z: 0.035618108}
        outSlope: {x: -3.4694454e-16, y: -0.004295824, z: 0.056228373}
        tangentMode: 0
        weightedMode: 0
        inWeight: {x: 0.33333334, y: 0.33333334, z: 0.33333334}
        outWeight: {x: 0.33333334, y: 0.33333334, z: 0.33333334}
      - serializedVersion: 3
        time: 0.9583333
        value: {x: 0.043430842, y: 0.002298057, z: -0.06424356}
        inSlope: {x: -1.4869073e-16, y: -0.005450254, z: 0.0742767}
        outSlope: {x: -3.4694454e-16, y: -0.0062427493, z: 0.08976205}
        tangentMode: 0
        weightedMode: 0
        inWeight: {x: 0.33333334, y: 0.33333334, z: 0.33333334}
        outWeight: {x: 0.33333334, y: 0.33333334, z: 0.33333334}
      - serializedVersion: 3
        time: 1.125
        value: {x: 0.043430842, y: 0.0012022257, z: -0.046481036}
        inSlope: {x: -1.4869073e-16, y: -0.006593234, z: 0.12081691}
        outSlope: {x: -3.4694504e-16, y: -0.0061540664, z: 0.12601835}
        tangentMode: 0
        weightedMode: 0
        inWeight: {x: 0.33333334, y: 0.33333334, z: 0.33333334}
        outWeight: {x: 0.33333334, y: 0.33333334, z: 0.33333334}
      - serializedVersion: 3
        time: 1.1666666
        value: {x: 0.043430842, y: 0.0009458065, z: -0.041230276}
        inSlope: {x: -1.4869073e-16, y: -0.0061540664, z: 0.12601835}
        outSlope: {x: -3.4694403e-16, y: -0.005520333, z: 0.12863511}
        tangentMode: 0
        weightedMode: 0
        inWeight: {x: 0.33333334, y: 0.33333334, z: 0.33333334}
        outWeight: {x: 0.33333334, y: 0.33333334, z: 0.33333334}
      - serializedVersion: 3
        time: 1.2083334
        value: {x: 0.043430842, y: 0.0007157922, z: -0.03587047}
        inSlope: {x: -1.4869031e-16, y: -0.005520333, z: 0.12863511}
        outSlope: {x: -3.4694504e-16, y: -0.004752164, z: 0.12866627}
        tangentMode: 0
        weightedMode: 0
        inWeight: {x: 0.33333334, y: 0.33333334, z: 0.33333334}
        outWeight: {x: 0.33333334, y: 0.33333334, z: 0.33333334}
      - serializedVersion: 3
        time: 1.25
        value: {x: 0.043430842, y: 0.00051778555, z: -0.03050938}
        inSlope: {x: -1.4869073e-16, y: -0.004752164, z: 0.12866627}
        outSlope: {x: -3.4694504e-16, y: -0.003913883, z: 0.12610735}
        tangentMode: 0
        weightedMode: 0
        inWeight: {x: 0.33333334, y: 0.33333334, z: 0.33333334}
        outWeight: {x: 0.33333334, y: 0.33333334, z: 0.33333334}
      - serializedVersion: 3
        time: 1.2916666
        value: {x: 0.043430842, y: 0.00035470724, z: -0.025254913}
        inSlope: {x: -1.4869073e-16, y: -0.003913883, z: 0.12610735}
        outSlope: {x: -3.4694403e-16, y: -0.0030584277, z: 0.12095801}
        tangentMode: 0
        weightedMode: 0
        inWeight: {x: 0.33333334, y: 0.33333334, z: 0.33333334}
        outWeight: {x: 0.33333334, y: 0.33333334, z: 0.33333334}
      - serializedVersion: 3
        time: 1.3333334
        value: {x: 0.043430842, y: 0.00022727251, z: -0.020214986}
        inSlope: {x: -1.4869031e-16, y: -0.0030584277, z: 0.12095801}
        outSlope: {x: -3.4694504e-16, y: -0.0018889921, z: 0.113218404}
        tangentMode: 0
        weightedMode: 0
        inWeight: {x: 0.33333334, y: 0.33333334, z: 0.33333334}
        outWeight: {x: 0.33333334, y: 0.33333334, z: 0.33333334}
      - serializedVersion: 3
        time: 1.375
        value: {x: 0.043430842, y: 0.00014856458, z: -0.015497557}
        inSlope: {x: -1.4869073e-16, y: -0.0018889921, z: 0.113218404}
        outSlope: {x: -3.4694504e-16, y: -0.0018889921, z: 0.102890104}
        tangentMode: 0
        weightedMode: 0
        inWeight: {x: 0.33333334, y: 0.33333334, z: 0.33333334}
        outWeight: {x: 0.33333334, y: 0.33333334, z: 0.33333334}
      - serializedVersion: 3
        time: 1.4166666
        value: {x: 0.043430842, y: 0.000069856644, z: -0.011210473}
        inSlope: {x: -1.4869073e-16, y: -0.0018889921, z: 0.102890104}
        outSlope: {x: -3.4694403e-16, y: -0.00033531155, z: 0.08997407}
        tangentMode: 0
        weightedMode: 0
        inWeight: {x: 0.33333334, y: 0.33333334, z: 0.33333334}
        outWeight: {x: 0.33333334, y: 0.33333334, z: 0.33333334}
      - serializedVersion: 3
        time: 1.4583334
        value: {x: 0.043430842, y: 0.000055885303, z: -0.0074615465}
        inSlope: {x: -1.4869031e-16, y: -0.00033531155, z: 0.08997407}
        outSlope: {x: -3.4694504e-16, y: -0.0003353119, z: 0.074474424}
        tangentMode: 0
        weightedMode: 0
        inWeight: {x: 0.33333334, y: 0.33333334, z: 0.33333334}
        outWeight: {x: 0.33333334, y: 0.33333334, z: 0.33333334}
      - serializedVersion: 3
        time: 1.5
        value: {x: 0.043430842, y: 0.000041913987, z: -0.0043584486}
        inSlope: {x: -1.4869073e-16, y: -0.0003353119, z: 0.074474424}
        outSlope: {x: -3.4694504e-16, y: -0.0003353119, z: 0.056391794}
        tangentMode: 0
        weightedMode: 0
        inWeight: {x: 0.33333334, y: 0.33333334, z: 0.33333334}
        outWeight: {x: 0.33333334, y: 0.33333334, z: 0.33333334}
      - serializedVersion: 3
        time: 1.5416666
        value: {x: 0.043430842, y: 0.000027942671, z: -0.0020087927}
        inSlope: {x: -1.4869073e-16, y: -0.0003353119, z: 0.056391794}
        outSlope: {x: -3.4694403e-16, y: -0.00033531187, z: 0.03572774}
        tangentMode: 0
        weightedMode: 0
        inWeight: {x: 0.33333334, y: 0.33333334, z: 0.33333334}
        outWeight: {x: 0.33333334, y: 0.33333334, z: 0.33333334}
      - serializedVersion: 3
        time: 1.5833334
        value: {x: 0.043430842, y: 0.000013971317, z: -0.00052013405}
        inSlope: {x: -1.4869031e-16, y: -0.00033531187, z: 0.03572774}
        outSlope: {x: -3.4694504e-16, y: -0.00033531192, z: 0.012483229}
        tangentMode: 0
        weightedMode: 0
        inWeight: {x: 0.33333334, y: 0.33333334, z: 0.33333334}
        outWeight: {x: 0.33333334, y: 0.33333334, z: 0.33333334}
      - serializedVersion: 3
        time: 1.625
        value: {x: 0.043430842, y: 0, z: 0}
        inSlope: {x: -1.4869073e-16, y: -0.00033531192, z: 0.012483229}
        outSlope: {x: -1.4869073e-16, y: -0.00033531192, z: 0.012483229}
        tangentMode: 0
        weightedMode: 0
        inWeight: {x: 0.33333334, y: 0.33333334, z: 0.33333334}
        outWeight: {x: 0.33333334, y: 0.33333334, z: 0.33333334}
      m_PreInfinity: 2
      m_PostInfinity: 2
      m_RotationOrder: 4
    path: Beard
  - curve:
      serializedVersion: 2
      m_Curve:
      - serializedVersion: 3
        time: 0
        value: {x: 0.043430842, y: 0, z: 0}
        inSlope: {x: -3.469447e-16, y: 0.0006387234, z: -0.013806481}
        outSlope: {x: -3.469447e-16, y: 0.0006387234, z: -0.013806481}
        tangentMode: 0
        weightedMode: 0
        inWeight: {x: 0.33333334, y: 0.33333334, z: 0.33333334}
        outWeight: {x: 0.33333334, y: 0.33333334, z: 0.33333334}
      - serializedVersion: 3
        time: 0.041666668
        value: {x: 0.043430842, y: 0.000026613474, z: -0.00057527004}
        inSlope: {x: -1.4869059e-16, y: 0.0006387234, z: -0.013806481}
        outSlope: {x: -3.469447e-16, y: 0.0006387234, z: -0.039412126}
        tangentMode: 0
        weightedMode: 0
        inWeight: {x: 0.33333334, y: 0.33333334, z: 0.33333334}
        outWeight: {x: 0.33333334, y: 0.33333334, z: 0.33333334}
      - serializedVersion: 3
        time: 0.083333336
        value: {x: 0.043430842, y: 0.000053226948, z: -0.002217442}
        inSlope: {x: -1.4869059e-16, y: 0.0006387234, z: -0.039412126}
        outSlope: {x: -3.4694472e-16, y: 0.00063872343, z: -0.06200736}
        tangentMode: 0
        weightedMode: 0
        inWeight: {x: 0.33333334, y: 0.33333334, z: 0.33333334}
        outWeight: {x: 0.33333334, y: 0.33333334, z: 0.33333334}
      - serializedVersion: 3
        time: 0.125
        value: {x: 0.043430842, y: 0.00007984042, z: -0.004801082}
        inSlope: {x: -1.486906e-16, y: 0.00063872343, z: -0.06200736}
        outSlope: {x: -3.4694467e-16, y: 0.0006387233, z: -0.08159175}
        tangentMode: 0
        weightedMode: 0
        inWeight: {x: 0.33333334, y: 0.33333334, z: 0.33333334}
        outWeight: {x: 0.33333334, y: 0.33333334, z: 0.33333334}
      - serializedVersion: 3
        time: 0.16666667
        value: {x: 0.043430842, y: 0.000106453896, z: -0.008200739}
        inSlope: {x: -1.4869057e-16, y: 0.0006387233, z: -0.08159175}
        outSlope: {x: -3.4694477e-16, y: 0.00063872355, z: -0.098163575}
        tangentMode: 0
        weightedMode: 0
        inWeight: {x: 0.33333334, y: 0.33333334, z: 0.33333334}
        outWeight: {x: 0.33333334, y: 0.33333334, z: 0.33333334}
      - serializedVersion: 3
        time: 0.20833333
        value: {x: 0.043430842, y: 0.00013306737, z: -0.012290887}
        inSlope: {x: -1.4869063e-16, y: 0.00063872355, z: -0.098163575}
        outSlope: {x: -3.4694467e-16, y: 0.0006387233, z: -0.11172018}
        tangentMode: 0
        weightedMode: 0
        inWeight: {x: 0.33333334, y: 0.33333334, z: 0.33333334}
        outWeight: {x: 0.33333334, y: 0.33333334, z: 0.33333334}
      - serializedVersion: 3
        time: 0.25
        value: {x: 0.043430842, y: 0.00015968084, z: -0.016945895}
        inSlope: {x: -1.4869057e-16, y: 0.0006387233, z: -0.11172018}
        outSlope: {x: -3.4694477e-16, y: 0.002652169, z: -0.12225905}
        tangentMode: 0
        weightedMode: 0
        inWeight: {x: 0.33333334, y: 0.33333334, z: 0.33333334}
        outWeight: {x: 0.33333334, y: 0.33333334, z: 0.33333334}
      - serializedVersion: 3
        time: 0.29166666
        value: {x: 0.043430842, y: 0.00027018785, z: -0.02204002}
        inSlope: {x: -1.4869063e-16, y: 0.002652169, z: -0.12225905}
        outSlope: {x: -3.4694454e-16, y: 0.0035719855, z: -0.12977701}
        tangentMode: 0
        weightedMode: 0
        inWeight: {x: 0.33333334, y: 0.33333334, z: 0.33333334}
        outWeight: {x: 0.33333334, y: 0.33333334, z: 0.33333334}
      - serializedVersion: 3
        time: 0.33333334
        value: {x: 0.043430842, y: 0.00041902065, z: -0.027447399}
        inSlope: {x: -1.4869052e-16, y: 0.0035719855, z: -0.12977701}
        outSlope: {x: -3.4694477e-16, y: 0.0045189867, z: -0.13427436}
        tangentMode: 0
        weightedMode: 0
        inWeight: {x: 0.33333334, y: 0.33333334, z: 0.33333334}
        outWeight: {x: 0.33333334, y: 0.33333334, z: 0.33333334}
      - serializedVersion: 3
        time: 0.375
        value: {x: 0.043430842, y: 0.0006073117, z: -0.033042163}
        inSlope: {x: -1.4869063e-16, y: 0.0045189867, z: -0.13427436}
        outSlope: {x: -3.4694477e-16, y: 0.0054202094, z: -0.13575056}
        tangentMode: 0
        weightedMode: 0
        inWeight: {x: 0.33333334, y: 0.33333334, z: 0.33333334}
        outWeight: {x: 0.33333334, y: 0.33333334, z: 0.33333334}
      - serializedVersion: 3
        time: 0.41666666
        value: {x: 0.043430842, y: 0.0008331537, z: -0.038698435}
        inSlope: {x: -1.4869063e-16, y: 0.0054202094, z: -0.13575056}
        outSlope: {x: -3.4694454e-16, y: 0.0062012644, z: -0.13420704}
        tangentMode: 0
        weightedMode: 0
        inWeight: {x: 0.33333334, y: 0.33333334, z: 0.33333334}
        outWeight: {x: 0.33333334, y: 0.33333334, z: 0.33333334}
      - serializedVersion: 3
        time: 0.45833334
        value: {x: 0.043430842, y: 0.0010915399, z: -0.044290397}
        inSlope: {x: -1.4869052e-16, y: 0.0062012644, z: -0.13420704}
        outSlope: {x: -3.4694477e-16, y: 0.0067849173, z: -0.12964916}
        tangentMode: 0
        weightedMode: 0
        inWeight: {x: 0.33333334, y: 0.33333334, z: 0.33333334}
        outWeight: {x: 0.33333334, y: 0.33333334, z: 0.33333334}
      - serializedVersion: 3
        time: 0.625
        value: {x: 0.043430842, y: 0.0022455454, z: -0.06350622}
        inSlope: {x: -1.4869052e-16, y: 0.0067119566, z: -0.09794001}
        outSlope: {x: -3.4694454e-16, y: 0.0059165927, z: -0.08137908}
        tangentMode: 0
        weightedMode: 0
        inWeight: {x: 0.33333334, y: 0.33333334, z: 0.33333334}
        outWeight: {x: 0.33333334, y: 0.33333334, z: 0.33333334}
      - serializedVersion: 3
        time: 0.6666667
        value: {x: 0.043430842, y: 0.0024920702, z: -0.06689702}
        inSlope: {x: -1.4869052e-16, y: 0.0059165927, z: -0.08137908}
        outSlope: {x: -3.4694504e-16, y: 0.004702096, z: -0.061829805}
        tangentMode: 0
        weightedMode: 0
        inWeight: {x: 0.33333334, y: 0.33333334, z: 0.33333334}
        outWeight: {x: 0.33333334, y: 0.33333334, z: 0.33333334}
      - serializedVersion: 3
        time: 0.7083333
        value: {x: 0.043430842, y: 0.0026879907, z: -0.06947326}
        inSlope: {x: -1.4869073e-16, y: 0.004702096, z: -0.061829805}
        outSlope: {x: -3.4694454e-16, y: 0.0030813203, z: -0.039291304}
        tangentMode: 0
        weightedMode: 0
        inWeight: {x: 0.33333334, y: 0.33333334, z: 0.33333334}
        outWeight: {x: 0.33333334, y: 0.33333334, z: 0.33333334}
      - serializedVersion: 3
        time: 0.75
        value: {x: 0.043430842, y: 0.002816379, z: -0.0711104}
        inSlope: {x: -1.4869052e-16, y: 0.0030813203, z: -0.039291304}
        outSlope: {x: -3.4694454e-16, y: 0.000052213643, z: -0.013762766}
        tangentMode: 0
        weightedMode: 0
        inWeight: {x: 0.33333334, y: 0.33333334, z: 0.33333334}
        outWeight: {x: 0.33333334, y: 0.33333334, z: 0.33333334}
      - serializedVersion: 3
        time: 0.8333333
        value: {x: 0.043430842, y: 0.0028207302, z: -0.07116536}
        inSlope: {x: -1.4869073e-16, y: 0.00005221372, z: 0.012443674}
        outSlope: {x: -3.4694454e-16, y: -0.002798079, z: 0.035618108}
        tangentMode: 0
        weightedMode: 0
        inWeight: {x: 0.33333334, y: 0.33333334, z: 0.33333334}
        outWeight: {x: 0.33333334, y: 0.33333334, z: 0.33333334}
      - serializedVersion: 3
        time: 0.875
        value: {x: 0.043430842, y: 0.0027041435, z: -0.06968127}
        inSlope: {x: -1.4869052e-16, y: -0.002798079, z: 0.035618108}
        outSlope: {x: -3.4694454e-16, y: -0.004295824, z: 0.056228373}
        tangentMode: 0
        weightedMode: 0
        inWeight: {x: 0.33333334, y: 0.33333334, z: 0.33333334}
        outWeight: {x: 0.33333334, y: 0.33333334, z: 0.33333334}
      - serializedVersion: 3
        time: 0.9583333
        value: {x: 0.043430842, y: 0.002298057, z: -0.06424356}
        inSlope: {x: -1.4869073e-16, y: -0.005450254, z: 0.0742767}
        outSlope: {x: -3.4694454e-16, y: -0.0062427493, z: 0.08976205}
        tangentMode: 0
        weightedMode: 0
        inWeight: {x: 0.33333334, y: 0.33333334, z: 0.33333334}
        outWeight: {x: 0.33333334, y: 0.33333334, z: 0.33333334}
      - serializedVersion: 3
        time: 1.125
        value: {x: 0.043430842, y: 0.0012022257, z: -0.046481036}
        inSlope: {x: -1.4869073e-16, y: -0.006593234, z: 0.12081691}
        outSlope: {x: -3.4694504e-16, y: -0.0061540664, z: 0.12601835}
        tangentMode: 0
        weightedMode: 0
        inWeight: {x: 0.33333334, y: 0.33333334, z: 0.33333334}
        outWeight: {x: 0.33333334, y: 0.33333334, z: 0.33333334}
      - serializedVersion: 3
        time: 1.1666666
        value: {x: 0.043430842, y: 0.0009458065, z: -0.041230276}
        inSlope: {x: -1.4869073e-16, y: -0.0061540664, z: 0.12601835}
        outSlope: {x: -3.4694403e-16, y: -0.005520333, z: 0.12863511}
        tangentMode: 0
        weightedMode: 0
        inWeight: {x: 0.33333334, y: 0.33333334, z: 0.33333334}
        outWeight: {x: 0.33333334, y: 0.33333334, z: 0.33333334}
      - serializedVersion: 3
        time: 1.2083334
        value: {x: 0.043430842, y: 0.0007157922, z: -0.03587047}
        inSlope: {x: -1.4869031e-16, y: -0.005520333, z: 0.12863511}
        outSlope: {x: -3.4694504e-16, y: -0.004752164, z: 0.12866627}
        tangentMode: 0
        weightedMode: 0
        inWeight: {x: 0.33333334, y: 0.33333334, z: 0.33333334}
        outWeight: {x: 0.33333334, y: 0.33333334, z: 0.33333334}
      - serializedVersion: 3
        time: 1.25
        value: {x: 0.043430842, y: 0.00051778555, z: -0.03050938}
        inSlope: {x: -1.4869073e-16, y: -0.004752164, z: 0.12866627}
        outSlope: {x: -3.4694504e-16, y: -0.003913883, z: 0.12610735}
        tangentMode: 0
        weightedMode: 0
        inWeight: {x: 0.33333334, y: 0.33333334, z: 0.33333334}
        outWeight: {x: 0.33333334, y: 0.33333334, z: 0.33333334}
      - serializedVersion: 3
        time: 1.2916666
        value: {x: 0.043430842, y: 0.00035470724, z: -0.025254913}
        inSlope: {x: -1.4869073e-16, y: -0.003913883, z: 0.12610735}
        outSlope: {x: -3.4694403e-16, y: -0.0030584277, z: 0.12095801}
        tangentMode: 0
        weightedMode: 0
        inWeight: {x: 0.33333334, y: 0.33333334, z: 0.33333334}
        outWeight: {x: 0.33333334, y: 0.33333334, z: 0.33333334}
      - serializedVersion: 3
        time: 1.3333334
        value: {x: 0.043430842, y: 0.00022727251, z: -0.020214986}
        inSlope: {x: -1.4869031e-16, y: -0.0030584277, z: 0.12095801}
        outSlope: {x: -3.4694504e-16, y: -0.0018889921, z: 0.113218404}
        tangentMode: 0
        weightedMode: 0
        inWeight: {x: 0.33333334, y: 0.33333334, z: 0.33333334}
        outWeight: {x: 0.33333334, y: 0.33333334, z: 0.33333334}
      - serializedVersion: 3
        time: 1.375
        value: {x: 0.043430842, y: 0.00014856458, z: -0.015497557}
        inSlope: {x: -1.4869073e-16, y: -0.0018889921, z: 0.113218404}
        outSlope: {x: -3.4694504e-16, y: -0.0018889921, z: 0.102890104}
        tangentMode: 0
        weightedMode: 0
        inWeight: {x: 0.33333334, y: 0.33333334, z: 0.33333334}
        outWeight: {x: 0.33333334, y: 0.33333334, z: 0.33333334}
      - serializedVersion: 3
        time: 1.4166666
        value: {x: 0.043430842, y: 0.000069856644, z: -0.011210473}
        inSlope: {x: -1.4869073e-16, y: -0.0018889921, z: 0.102890104}
        outSlope: {x: -3.4694403e-16, y: -0.00033531155, z: 0.08997407}
        tangentMode: 0
        weightedMode: 0
        inWeight: {x: 0.33333334, y: 0.33333334, z: 0.33333334}
        outWeight: {x: 0.33333334, y: 0.33333334, z: 0.33333334}
      - serializedVersion: 3
        time: 1.4583334
        value: {x: 0.043430842, y: 0.000055885303, z: -0.0074615465}
        inSlope: {x: -1.4869031e-16, y: -0.00033531155, z: 0.08997407}
        outSlope: {x: -3.4694504e-16, y: -0.0003353119, z: 0.074474424}
        tangentMode: 0
        weightedMode: 0
        inWeight: {x: 0.33333334, y: 0.33333334, z: 0.33333334}
        outWeight: {x: 0.33333334, y: 0.33333334, z: 0.33333334}
      - serializedVersion: 3
        time: 1.5
        value: {x: 0.043430842, y: 0.000041913987, z: -0.0043584486}
        inSlope: {x: -1.4869073e-16, y: -0.0003353119, z: 0.074474424}
        outSlope: {x: -3.4694504e-16, y: -0.0003353119, z: 0.056391794}
        tangentMode: 0
        weightedMode: 0
        inWeight: {x: 0.33333334, y: 0.33333334, z: 0.33333334}
        outWeight: {x: 0.33333334, y: 0.33333334, z: 0.33333334}
      - serializedVersion: 3
        time: 1.5416666
        value: {x: 0.043430842, y: 0.000027942671, z: -0.0020087927}
        inSlope: {x: -1.4869073e-16, y: -0.0003353119, z: 0.056391794}
        outSlope: {x: -3.4694403e-16, y: -0.00033531187, z: 0.03572774}
        tangentMode: 0
        weightedMode: 0
        inWeight: {x: 0.33333334, y: 0.33333334, z: 0.33333334}
        outWeight: {x: 0.33333334, y: 0.33333334, z: 0.33333334}
      - serializedVersion: 3
        time: 1.5833334
        value: {x: 0.043430842, y: 0.000013971317, z: -0.00052013405}
        inSlope: {x: -1.4869031e-16, y: -0.00033531187, z: 0.03572774}
        outSlope: {x: -3.4694504e-16, y: -0.00033531192, z: 0.012483229}
        tangentMode: 0
        weightedMode: 0
        inWeight: {x: 0.33333334, y: 0.33333334, z: 0.33333334}
        outWeight: {x: 0.33333334, y: 0.33333334, z: 0.33333334}
      - serializedVersion: 3
        time: 1.625
        value: {x: 0.043430842, y: 0, z: 0}
        inSlope: {x: -1.4869073e-16, y: -0.00033531192, z: 0.012483229}
        outSlope: {x: -1.4869073e-16, y: -0.00033531192, z: 0.012483229}
        tangentMode: 0
        weightedMode: 0
        inWeight: {x: 0.33333334, y: 0.33333334, z: 0.33333334}
        outWeight: {x: 0.33333334, y: 0.33333334, z: 0.33333334}
      m_PreInfinity: 2
      m_PostInfinity: 2
      m_RotationOrder: 4
    path: Hair
  - curve:
      serializedVersion: 2
      m_Curve:
      - serializedVersion: 3
        time: 0
        value: {x: -0, y: 0, z: 0}
        inSlope: {x: 0, y: 0, z: 0}
        outSlope: {x: 0, y: 0, z: 0}
        tangentMode: 0
        weightedMode: 0
        inWeight: {x: 0.33333334, y: 0.33333334, z: 0.33333334}
        outWeight: {x: 0.33333334, y: 0.33333334, z: 0.33333334}
      - serializedVersion: 3
        time: 1.625
        value: {x: -0, y: 0, z: 0}
        inSlope: {x: 0, y: 0, z: 0}
        outSlope: {x: 0, y: 0, z: 0}
        tangentMode: 0
        weightedMode: 0
        inWeight: {x: 0.33333334, y: 0.33333334, z: 0.33333334}
        outWeight: {x: 0.33333334, y: 0.33333334, z: 0.33333334}
      m_PreInfinity: 2
      m_PostInfinity: 2
      m_RotationOrder: 4
    path: Armature
  - curve:
      serializedVersion: 2
      m_Curve:
      - serializedVersion: 3
        time: 0
        value: {x: -0, y: 0, z: 0.424379}
        inSlope: {x: 0, y: 0, z: 0}
        outSlope: {x: 0, y: 0, z: 0}
        tangentMode: 0
        weightedMode: 0
        inWeight: {x: 0.33333334, y: 0.33333334, z: 0.33333334}
        outWeight: {x: 0.33333334, y: 0.33333334, z: 0.33333334}
      - serializedVersion: 3
        time: 1.625
        value: {x: -0, y: 0, z: 0.424379}
        inSlope: {x: 0, y: 0, z: 0}
        outSlope: {x: 0, y: 0, z: 0}
        tangentMode: 0
        weightedMode: 0
        inWeight: {x: 0.33333334, y: 0.33333334, z: 0.33333334}
        outWeight: {x: 0.33333334, y: 0.33333334, z: 0.33333334}
      m_PreInfinity: 2
      m_PostInfinity: 2
      m_RotationOrder: 4
    path: Armature/Root
  - curve:
      serializedVersion: 2
      m_Curve:
      - serializedVersion: 3
        time: 0
        value: {x: -0, y: 0.15124202, z: 0}
        inSlope: {x: 0, y: 0, z: 0}
        outSlope: {x: 0, y: 0, z: 0}
        tangentMode: 0
        weightedMode: 0
        inWeight: {x: 0.33333334, y: 0.33333334, z: 0.33333334}
        outWeight: {x: 0.33333334, y: 0.33333334, z: 0.33333334}
      - serializedVersion: 3
        time: 1.625
        value: {x: -0, y: 0.15124202, z: 0}
        inSlope: {x: 0, y: 0, z: 0}
        outSlope: {x: 0, y: 0, z: 0}
        tangentMode: 0
        weightedMode: 0
        inWeight: {x: 0.33333334, y: 0.33333334, z: 0.33333334}
        outWeight: {x: 0.33333334, y: 0.33333334, z: 0.33333334}
      m_PreInfinity: 2
      m_PostInfinity: 2
      m_RotationOrder: 4
    path: Armature/Root/Spine1
  - curve:
      serializedVersion: 2
      m_Curve:
      - serializedVersion: 3
        time: 0
        value: {x: -0, y: 0.1373418, z: 0}
        inSlope: {x: 0, y: 0, z: 0}
        outSlope: {x: 0, y: 0, z: 0}
        tangentMode: 0
        weightedMode: 0
        inWeight: {x: 0.33333334, y: 0.33333334, z: 0.33333334}
        outWeight: {x: 0.33333334, y: 0.33333334, z: 0.33333334}
      - serializedVersion: 3
        time: 1.625
        value: {x: -0, y: 0.1373418, z: 0}
        inSlope: {x: 0, y: 0, z: 0}
        outSlope: {x: 0, y: 0, z: 0}
        tangentMode: 0
        weightedMode: 0
        inWeight: {x: 0.33333334, y: 0.33333334, z: 0.33333334}
        outWeight: {x: 0.33333334, y: 0.33333334, z: 0.33333334}
      m_PreInfinity: 2
      m_PostInfinity: 2
      m_RotationOrder: 4
    path: Armature/Root/Spine1/Spine2
  - curve:
      serializedVersion: 2
      m_Curve:
      - serializedVersion: 3
        time: 0
        value: {x: -0, y: 0.1861744, z: 0}
        inSlope: {x: 0, y: 0, z: 0}
        outSlope: {x: 0, y: 0, z: 0}
        tangentMode: 0
        weightedMode: 0
        inWeight: {x: 0.33333334, y: 0.33333334, z: 0.33333334}
        outWeight: {x: 0.33333334, y: 0.33333334, z: 0.33333334}
      - serializedVersion: 3
        time: 1.625
        value: {x: -0, y: 0.1861744, z: 0}
        inSlope: {x: 0, y: 0, z: 0}
        outSlope: {x: 0, y: 0, z: 0}
        tangentMode: 0
        weightedMode: 0
        inWeight: {x: 0.33333334, y: 0.33333334, z: 0.33333334}
        outWeight: {x: 0.33333334, y: 0.33333334, z: 0.33333334}
      m_PreInfinity: 2
      m_PostInfinity: 2
      m_RotationOrder: 4
    path: Armature/Root/Spine1/Spine2/Shoulder.L
  - curve:
      serializedVersion: 2
      m_Curve:
      - serializedVersion: 3
        time: 0
        value: {x: -0.000000022351738, y: 0.17974775, z: 5.3290705e-15}
        inSlope: {x: 0, y: 0, z: 0}
        outSlope: {x: 0, y: 0, z: 0}
        tangentMode: 0
        weightedMode: 0
        inWeight: {x: 0.33333334, y: 0.33333334, z: 0.33333334}
        outWeight: {x: 0.33333334, y: 0.33333334, z: 0.33333334}
      - serializedVersion: 3
        time: 1.625
        value: {x: -0.000000022351738, y: 0.17974775, z: 5.3290705e-15}
        inSlope: {x: 0, y: 0, z: 0}
        outSlope: {x: 0, y: 0, z: 0}
        tangentMode: 0
        weightedMode: 0
        inWeight: {x: 0.33333334, y: 0.33333334, z: 0.33333334}
        outWeight: {x: 0.33333334, y: 0.33333334, z: 0.33333334}
      m_PreInfinity: 2
      m_PostInfinity: 2
      m_RotationOrder: 4
    path: Armature/Root/Spine1/Spine2/Shoulder.L/Upperarm.L
  - curve:
      serializedVersion: 2
      m_Curve:
      - serializedVersion: 3
        time: 0
        value: {x: 0.00000003349851, y: 0.23154417, z: -0.0000000013969839}
        inSlope: {x: 0, y: 0, z: 0}
        outSlope: {x: 0, y: 0, z: 0}
        tangentMode: 0
        weightedMode: 0
        inWeight: {x: 0.33333334, y: 0.33333334, z: 0.33333334}
        outWeight: {x: 0.33333334, y: 0.33333334, z: 0.33333334}
      - serializedVersion: 3
        time: 1.625
        value: {x: 0.00000003349851, y: 0.23154417, z: -0.0000000013969839}
        inSlope: {x: 0, y: 0, z: 0}
        outSlope: {x: 0, y: 0, z: 0}
        tangentMode: 0
        weightedMode: 0
        inWeight: {x: 0.33333334, y: 0.33333334, z: 0.33333334}
        outWeight: {x: 0.33333334, y: 0.33333334, z: 0.33333334}
      m_PreInfinity: 2
      m_PostInfinity: 2
      m_RotationOrder: 4
    path: Armature/Root/Spine1/Spine2/Shoulder.L/Upperarm.L/Lowerarm.L
  - curve:
      serializedVersion: 2
      m_Curve:
      - serializedVersion: 3
        time: 0
        value: {x: 0.00000007948256, y: 0.15899962, z: -0.0000000060535967}
        inSlope: {x: 0, y: 0, z: 0}
        outSlope: {x: 0, y: 0, z: 0}
        tangentMode: 0
        weightedMode: 0
        inWeight: {x: 0.33333334, y: 0.33333334, z: 0.33333334}
        outWeight: {x: 0.33333334, y: 0.33333334, z: 0.33333334}
      - serializedVersion: 3
        time: 1.625
        value: {x: 0.00000007948256, y: 0.15899962, z: -0.0000000060535967}
        inSlope: {x: 0, y: 0, z: 0}
        outSlope: {x: 0, y: 0, z: 0}
        tangentMode: 0
        weightedMode: 0
        inWeight: {x: 0.33333334, y: 0.33333334, z: 0.33333334}
        outWeight: {x: 0.33333334, y: 0.33333334, z: 0.33333334}
      m_PreInfinity: 2
      m_PostInfinity: 2
      m_RotationOrder: 4
    path: Armature/Root/Spine1/Spine2/Shoulder.L/Upperarm.L/Lowerarm.L/Hand.L
  - curve:
      serializedVersion: 2
      m_Curve:
      - serializedVersion: 3
        time: 0
        value: {x: -0, y: 0.1861744, z: 0}
        inSlope: {x: 0, y: 0, z: 0}
        outSlope: {x: 0, y: 0, z: 0}
        tangentMode: 0
        weightedMode: 0
        inWeight: {x: 0.33333334, y: 0.33333334, z: 0.33333334}
        outWeight: {x: 0.33333334, y: 0.33333334, z: 0.33333334}
      - serializedVersion: 3
        time: 1.625
        value: {x: -0, y: 0.1861744, z: 0}
        inSlope: {x: 0, y: 0, z: 0}
        outSlope: {x: 0, y: 0, z: 0}
        tangentMode: 0
        weightedMode: 0
        inWeight: {x: 0.33333334, y: 0.33333334, z: 0.33333334}
        outWeight: {x: 0.33333334, y: 0.33333334, z: 0.33333334}
      m_PreInfinity: 2
      m_PostInfinity: 2
      m_RotationOrder: 4
    path: Armature/Root/Spine1/Spine2/Head
  - curve:
      serializedVersion: 2
      m_Curve:
      - serializedVersion: 3
        time: 0
        value: {x: -0, y: 0.1861744, z: 0}
        inSlope: {x: 0, y: 0, z: 0}
        outSlope: {x: 0, y: 0, z: 0}
        tangentMode: 0
        weightedMode: 0
        inWeight: {x: 0.33333334, y: 0.33333334, z: 0.33333334}
        outWeight: {x: 0.33333334, y: 0.33333334, z: 0.33333334}
      - serializedVersion: 3
        time: 1.625
        value: {x: -0, y: 0.1861744, z: 0}
        inSlope: {x: 0, y: 0, z: 0}
        outSlope: {x: 0, y: 0, z: 0}
        tangentMode: 0
        weightedMode: 0
        inWeight: {x: 0.33333334, y: 0.33333334, z: 0.33333334}
        outWeight: {x: 0.33333334, y: 0.33333334, z: 0.33333334}
      m_PreInfinity: 2
      m_PostInfinity: 2
      m_RotationOrder: 4
    path: Armature/Root/Spine1/Spine2/Shoulder.R
  - curve:
      serializedVersion: 2
      m_Curve:
      - serializedVersion: 3
        time: 0
        value: {x: 0.000000022351738, y: 0.17974775, z: 5.3290705e-15}
        inSlope: {x: 0, y: 0, z: 0}
        outSlope: {x: 0, y: 0, z: 0}
        tangentMode: 0
        weightedMode: 0
        inWeight: {x: 0.33333334, y: 0.33333334, z: 0.33333334}
        outWeight: {x: 0.33333334, y: 0.33333334, z: 0.33333334}
      - serializedVersion: 3
        time: 1.625
        value: {x: 0.000000022351738, y: 0.17974775, z: 5.3290705e-15}
        inSlope: {x: 0, y: 0, z: 0}
        outSlope: {x: 0, y: 0, z: 0}
        tangentMode: 0
        weightedMode: 0
        inWeight: {x: 0.33333334, y: 0.33333334, z: 0.33333334}
        outWeight: {x: 0.33333334, y: 0.33333334, z: 0.33333334}
      m_PreInfinity: 2
      m_PostInfinity: 2
      m_RotationOrder: 4
    path: Armature/Root/Spine1/Spine2/Shoulder.R/Upperarm.R
  - curve:
      serializedVersion: 2
      m_Curve:
      - serializedVersion: 3
        time: 0
        value: {x: -0.0000000018626451, y: 0.23154412, z: 0.000000004412542}
        inSlope: {x: 0, y: 0, z: 0}
        outSlope: {x: 0, y: 0, z: 0}
        tangentMode: 0
        weightedMode: 0
        inWeight: {x: 0.33333334, y: 0.33333334, z: 0.33333334}
        outWeight: {x: 0.33333334, y: 0.33333334, z: 0.33333334}
      - serializedVersion: 3
        time: 1.625
        value: {x: -0.0000000018626451, y: 0.23154412, z: 0.000000004412542}
        inSlope: {x: 0, y: 0, z: 0}
        outSlope: {x: 0, y: 0, z: 0}
        tangentMode: 0
        weightedMode: 0
        inWeight: {x: 0.33333334, y: 0.33333334, z: 0.33333334}
        outWeight: {x: 0.33333334, y: 0.33333334, z: 0.33333334}
      m_PreInfinity: 2
      m_PostInfinity: 2
      m_RotationOrder: 4
    path: Armature/Root/Spine1/Spine2/Shoulder.R/Upperarm.R/Lowerarm.R
  - curve:
      serializedVersion: 2
      m_Curve:
      - serializedVersion: 3
        time: 0
        value: {x: 0.000000007450581, y: 0.15899971, z: 0.0000000018626451}
        inSlope: {x: 0, y: 0, z: 0}
        outSlope: {x: 0, y: 0, z: 0}
        tangentMode: 0
        weightedMode: 0
        inWeight: {x: 0.33333334, y: 0.33333334, z: 0.33333334}
        outWeight: {x: 0.33333334, y: 0.33333334, z: 0.33333334}
      - serializedVersion: 3
        time: 1.625
        value: {x: 0.000000007450581, y: 0.15899971, z: 0.0000000018626451}
        inSlope: {x: 0, y: 0, z: 0}
        outSlope: {x: 0, y: 0, z: 0}
        tangentMode: 0
        weightedMode: 0
        inWeight: {x: 0.33333334, y: 0.33333334, z: 0.33333334}
        outWeight: {x: 0.33333334, y: 0.33333334, z: 0.33333334}
      m_PreInfinity: 2
      m_PostInfinity: 2
      m_RotationOrder: 4
    path: Armature/Root/Spine1/Spine2/Shoulder.R/Upperarm.R/Lowerarm.R/Hand.R
  - curve:
      serializedVersion: 2
      m_Curve:
      - serializedVersion: 3
        time: 0
        value: {x: -0.15842392, y: 0.012181938, z: -0.19969252}
        inSlope: {x: -0.0030226707, y: 0.0039281845, z: -0.0139153}
        outSlope: {x: -0.0030226707, y: 0.0039281845, z: -0.0139153}
        tangentMode: 0
        weightedMode: 0
        inWeight: {x: 0.33333334, y: 0.33333334, z: 0.33333334}
        outWeight: {x: 0.33333334, y: 0.33333334, z: 0.33333334}
      - serializedVersion: 3
        time: 0.041666668
        value: {x: -0.15854986, y: 0.012345612, z: -0.20027232}
        inSlope: {x: -0.0030226707, y: 0.0039281845, z: -0.0139153}
        outSlope: {x: -0.00862205, y: 0.0112781525, z: -0.03970921}
        tangentMode: 0
        weightedMode: 0
        inWeight: {x: 0.33333334, y: 0.33333334, z: 0.33333334}
        outWeight: {x: 0.33333334, y: 0.33333334, z: 0.33333334}
      - serializedVersion: 3
        time: 0.083333336
        value: {x: -0.15890911, y: 0.012815535, z: -0.20192687}
        inSlope: {x: -0.00862205, y: 0.0112781525, z: -0.03970921}
        outSlope: {x: -0.01354909, y: 0.017911436, z: -0.062427524}
        tangentMode: 0
        weightedMode: 0
        inWeight: {x: 0.33333334, y: 0.33333334, z: 0.33333334}
        outWeight: {x: 0.33333334, y: 0.33333334, z: 0.33333334}
      - serializedVersion: 3
        time: 0.16666667
        value: {x: -0.1602154, y: 0.014557183, z: -0.20794803}
        inSlope: {x: -0.01780164, y: 0.023888107, z: -0.08208024}
        outSlope: {x: -0.021374708, y: 0.029213913, z: -0.09863701}
        tangentMode: 0
        weightedMode: 0
        inWeight: {x: 0.33333334, y: 0.33333334, z: 0.33333334}
        outWeight: {x: 0.33333334, y: 0.33333334, z: 0.33333334}
      - serializedVersion: 3
        time: 0.33333334
        value: {x: -0.16438879, y: 0.020474017, z: -0.2272429}
        inSlope: {x: -0.02803229, y: 0.041059952, z: -0.12982816}
        outSlope: {x: -0.02890993, y: 0.043438923, z: -0.13409689}
        tangentMode: 0
        weightedMode: 0
        inWeight: {x: 0.33333334, y: 0.33333334, z: 0.33333334}
        outWeight: {x: 0.33333334, y: 0.33333334, z: 0.33333334}
      - serializedVersion: 3
        time: 0.6666667
        value: {x: -0.1727932, y: 0.034103096, z: -0.2664288}
        inSlope: {x: -0.017133228, y: 0.030020699, z: -0.08036395}
        outSlope: {x: -0.012989056, y: 0.023044132, z: -0.060994923}
        tangentMode: 0
        weightedMode: 0
        inWeight: {x: 0.33333334, y: 0.33333334, z: 0.33333334}
        outWeight: {x: 0.33333334, y: 0.33333334, z: 0.33333334}
      - serializedVersion: 3
        time: 0.7916667
        value: {x: -0.17379808, y: 0.035894454, z: -0.27114934}
        inSlope: {x: -0.0055639716, y: 0.0051898933, z: -0.013564103}
        outSlope: {x: 0.005040054, y: -0.0046949433, z: 0.0122652175}
        tangentMode: 0
        weightedMode: 0
        inWeight: {x: 0.33333334, y: 0.33333334, z: 0.33333334}
        outWeight: {x: 0.33333334, y: 0.33333334, z: 0.33333334}
      - serializedVersion: 3
        time: 0.9583333
        value: {x: -0.17223468, y: 0.033122957, z: -0.26380867}
        inSlope: {x: 0.015630856, y: -0.027455833, z: 0.07333738}
        outSlope: {x: 0.018934598, y: -0.032778725, z: 0.08872171}
        tangentMode: 0
        weightedMode: 0
        inWeight: {x: 0.33333334, y: 0.33333334, z: 0.33333334}
        outWeight: {x: 0.33333334, y: 0.33333334, z: 0.33333334}
      - serializedVersion: 3
        time: 1.375
        value: {x: -0.16180283, y: 0.016743839, z: -0.21527648}
        inSlope: {x: 0.024549747, y: -0.03481153, z: 0.113502614}
        outSlope: {x: 0.02236571, y: -0.031033546, z: 0.10329018}
        tangentMode: 0
        weightedMode: 0
        inWeight: {x: 0.33333334, y: 0.33333334, z: 0.33333334}
        outWeight: {x: 0.33333334, y: 0.33333334, z: 0.33333334}
      - serializedVersion: 3
        time: 1.5
        value: {x: -0.15937702, y: 0.013433397, z: -0.2040826}
        inSlope: {x: 0.016253844, y: -0.021746656, z: 0.07492955}
        outSlope: {x: 0.0123267295, y: -0.016267791, z: 0.05678278}
        tangentMode: 0
        weightedMode: 0
        inWeight: {x: 0.33333334, y: 0.33333334, z: 0.33333334}
        outWeight: {x: 0.33333334, y: 0.33333334, z: 0.33333334}
      - serializedVersion: 3
        time: 1.5833334
        value: {x: -0.15853776, y: 0.012329996, z: -0.20021683}
        inSlope: {x: 0.007815585, y: -0.010213832, z: 0.035995536}
        outSlope: {x: 0.0027322795, y: -0.003553394, z: 0.012583506}
        tangentMode: 0
        weightedMode: 0
        inWeight: {x: 0.33333334, y: 0.33333334, z: 0.33333334}
        outWeight: {x: 0.33333334, y: 0.33333334, z: 0.33333334}
      - serializedVersion: 3
        time: 1.625
        value: {x: -0.15842392, y: 0.012181938, z: -0.19969252}
        inSlope: {x: 0.0027322795, y: -0.003553394, z: 0.012583506}
        outSlope: {x: 0.0027322795, y: -0.003553394, z: 0.012583506}
        tangentMode: 0
        weightedMode: 0
        inWeight: {x: 0.33333334, y: 0.33333334, z: 0.33333334}
        outWeight: {x: 0.33333334, y: 0.33333334, z: 0.33333334}
      m_PreInfinity: 2
      m_PostInfinity: 2
      m_RotationOrder: 4
    path: Torch
  m_ScaleCurves:
  - curve:
      serializedVersion: 2
      m_Curve:
      - serializedVersion: 3
        time: 0
        value: {x: 1, y: 1, z: 1}
        inSlope: {x: 0, y: 0, z: 0}
        outSlope: {x: 0, y: 0, z: 0}
        tangentMode: 0
        weightedMode: 0
        inWeight: {x: 0.33333334, y: 0.33333334, z: 0.33333334}
        outWeight: {x: 0.33333334, y: 0.33333334, z: 0.33333334}
      - serializedVersion: 3
        time: 1.625
        value: {x: 1, y: 1, z: 1}
        inSlope: {x: 0, y: 0, z: 0}
        outSlope: {x: 0, y: 0, z: 0}
        tangentMode: 0
        weightedMode: 0
        inWeight: {x: 0.33333334, y: 0.33333334, z: 0.33333334}
        outWeight: {x: 0.33333334, y: 0.33333334, z: 0.33333334}
      m_PreInfinity: 2
      m_PostInfinity: 2
      m_RotationOrder: 4
    path: Hat
  - curve:
      serializedVersion: 2
      m_Curve:
      - serializedVersion: 3
        time: 0
        value: {x: 1, y: 1, z: 1}
        inSlope: {x: 0, y: 0, z: 0}
        outSlope: {x: 0, y: 0, z: 0}
        tangentMode: 0
        weightedMode: 0
        inWeight: {x: 0.33333334, y: 0.33333334, z: 0.33333334}
        outWeight: {x: 0.33333334, y: 0.33333334, z: 0.33333334}
      - serializedVersion: 3
        time: 1.625
        value: {x: 1, y: 1, z: 1}
        inSlope: {x: 0, y: 0, z: 0}
        outSlope: {x: 0, y: 0, z: 0}
        tangentMode: 0
        weightedMode: 0
        inWeight: {x: 0.33333334, y: 0.33333334, z: 0.33333334}
        outWeight: {x: 0.33333334, y: 0.33333334, z: 0.33333334}
      m_PreInfinity: 2
      m_PostInfinity: 2
      m_RotationOrder: 4
    path: Beard
  - curve:
      serializedVersion: 2
      m_Curve:
      - serializedVersion: 3
        time: 0
        value: {x: 1, y: 1, z: 1}
        inSlope: {x: 0, y: 0, z: 0}
        outSlope: {x: 0, y: 0, z: 0}
        tangentMode: 0
        weightedMode: 0
        inWeight: {x: 0.33333334, y: 0.33333334, z: 0.33333334}
        outWeight: {x: 0.33333334, y: 0.33333334, z: 0.33333334}
      - serializedVersion: 3
        time: 1.625
        value: {x: 1, y: 1, z: 1}
        inSlope: {x: 0, y: 0, z: 0}
        outSlope: {x: 0, y: 0, z: 0}
        tangentMode: 0
        weightedMode: 0
        inWeight: {x: 0.33333334, y: 0.33333334, z: 0.33333334}
        outWeight: {x: 0.33333334, y: 0.33333334, z: 0.33333334}
      m_PreInfinity: 2
      m_PostInfinity: 2
      m_RotationOrder: 4
    path: Hair
  - curve:
      serializedVersion: 2
      m_Curve:
      - serializedVersion: 3
        time: 0
        value: {x: 1, y: 1, z: 1}
        inSlope: {x: 0, y: 0, z: 0}
        outSlope: {x: 0, y: 0, z: 0}
        tangentMode: 0
        weightedMode: 0
        inWeight: {x: 0.33333334, y: 0.33333334, z: 0.33333334}
        outWeight: {x: 0.33333334, y: 0.33333334, z: 0.33333334}
      - serializedVersion: 3
        time: 1.625
        value: {x: 1, y: 1, z: 1}
        inSlope: {x: 0, y: 0, z: 0}
        outSlope: {x: 0, y: 0, z: 0}
        tangentMode: 0
        weightedMode: 0
        inWeight: {x: 0.33333334, y: 0.33333334, z: 0.33333334}
        outWeight: {x: 0.33333334, y: 0.33333334, z: 0.33333334}
      m_PreInfinity: 2
      m_PostInfinity: 2
      m_RotationOrder: 4
    path: Armature
  - curve:
      serializedVersion: 2
      m_Curve:
      - serializedVersion: 3
        time: 0
        value: {x: 1, y: 1, z: 1}
        inSlope: {x: 0, y: 0, z: 0}
        outSlope: {x: 0, y: 0, z: 0}
        tangentMode: 0
        weightedMode: 0
        inWeight: {x: 0.33333334, y: 0.33333334, z: 0.33333334}
        outWeight: {x: 0.33333334, y: 0.33333334, z: 0.33333334}
      - serializedVersion: 3
        time: 1.625
        value: {x: 1, y: 1, z: 1}
        inSlope: {x: 0, y: 0, z: 0}
        outSlope: {x: 0, y: 0, z: 0}
        tangentMode: 0
        weightedMode: 0
        inWeight: {x: 0.33333334, y: 0.33333334, z: 0.33333334}
        outWeight: {x: 0.33333334, y: 0.33333334, z: 0.33333334}
      m_PreInfinity: 2
      m_PostInfinity: 2
      m_RotationOrder: 4
    path: Armature/Root
  - curve:
      serializedVersion: 2
      m_Curve:
      - serializedVersion: 3
        time: 0
        value: {x: 1, y: 1, z: 1}
        inSlope: {x: 0, y: 0, z: 0}
        outSlope: {x: 0, y: 0, z: 0}
        tangentMode: 0
        weightedMode: 0
        inWeight: {x: 0.33333334, y: 0.33333334, z: 0.33333334}
        outWeight: {x: 0.33333334, y: 0.33333334, z: 0.33333334}
      - serializedVersion: 3
        time: 1.625
        value: {x: 1, y: 1, z: 1}
        inSlope: {x: 0, y: 0, z: 0}
        outSlope: {x: 0, y: 0, z: 0}
        tangentMode: 0
        weightedMode: 0
        inWeight: {x: 0.33333334, y: 0.33333334, z: 0.33333334}
        outWeight: {x: 0.33333334, y: 0.33333334, z: 0.33333334}
      m_PreInfinity: 2
      m_PostInfinity: 2
      m_RotationOrder: 4
    path: Armature/Root/Spine1
  - curve:
      serializedVersion: 2
      m_Curve:
      - serializedVersion: 3
        time: 0
        value: {x: 1, y: 1, z: 1}
        inSlope: {x: 0, y: 0, z: 0}
        outSlope: {x: 0, y: 0, z: 0}
        tangentMode: 0
        weightedMode: 0
        inWeight: {x: 0.33333334, y: 0.33333334, z: 0.33333334}
        outWeight: {x: 0.33333334, y: 0.33333334, z: 0.33333334}
      - serializedVersion: 3
        time: 1.625
        value: {x: 1, y: 1, z: 1}
        inSlope: {x: 0, y: 0, z: 0}
        outSlope: {x: 0, y: 0, z: 0}
        tangentMode: 0
        weightedMode: 0
        inWeight: {x: 0.33333334, y: 0.33333334, z: 0.33333334}
        outWeight: {x: 0.33333334, y: 0.33333334, z: 0.33333334}
      m_PreInfinity: 2
      m_PostInfinity: 2
      m_RotationOrder: 4
    path: Armature/Root/Spine1/Spine2
  - curve:
      serializedVersion: 2
      m_Curve:
      - serializedVersion: 3
        time: 0
        value: {x: 1, y: 1, z: 1}
        inSlope: {x: 0, y: 0, z: 0}
        outSlope: {x: 0, y: 0, z: 0}
        tangentMode: 0
        weightedMode: 0
        inWeight: {x: 0.33333334, y: 0.33333334, z: 0.33333334}
        outWeight: {x: 0.33333334, y: 0.33333334, z: 0.33333334}
      - serializedVersion: 3
        time: 1.625
        value: {x: 1, y: 1, z: 1}
        inSlope: {x: 0, y: 0, z: 0}
        outSlope: {x: 0, y: 0, z: 0}
        tangentMode: 0
        weightedMode: 0
        inWeight: {x: 0.33333334, y: 0.33333334, z: 0.33333334}
        outWeight: {x: 0.33333334, y: 0.33333334, z: 0.33333334}
      m_PreInfinity: 2
      m_PostInfinity: 2
      m_RotationOrder: 4
    path: Armature/Root/Spine1/Spine2/Shoulder.L
  - curve:
      serializedVersion: 2
      m_Curve:
      - serializedVersion: 3
        time: 0
        value: {x: 1, y: 1, z: 1}
        inSlope: {x: 0, y: 0, z: 0}
        outSlope: {x: 0, y: 0, z: 0}
        tangentMode: 0
        weightedMode: 0
        inWeight: {x: 0.33333334, y: 0.33333334, z: 0.33333334}
        outWeight: {x: 0.33333334, y: 0.33333334, z: 0.33333334}
      - serializedVersion: 3
        time: 1.625
        value: {x: 1, y: 1, z: 1}
        inSlope: {x: 0, y: 0, z: 0}
        outSlope: {x: 0, y: 0, z: 0}
        tangentMode: 0
        weightedMode: 0
        inWeight: {x: 0.33333334, y: 0.33333334, z: 0.33333334}
        outWeight: {x: 0.33333334, y: 0.33333334, z: 0.33333334}
      m_PreInfinity: 2
      m_PostInfinity: 2
      m_RotationOrder: 4
    path: Armature/Root/Spine1/Spine2/Shoulder.L/Upperarm.L
  - curve:
      serializedVersion: 2
      m_Curve:
      - serializedVersion: 3
        time: 0
        value: {x: 1.0000001, y: 1, z: 1}
        inSlope: {x: 0, y: 0, z: 0}
        outSlope: {x: 0, y: 0, z: 0}
        tangentMode: 0
        weightedMode: 0
        inWeight: {x: 0.33333334, y: 0.33333334, z: 0.33333334}
        outWeight: {x: 0.33333334, y: 0.33333334, z: 0.33333334}
      - serializedVersion: 3
        time: 1.625
        value: {x: 1.0000001, y: 1, z: 1}
        inSlope: {x: 0, y: 0, z: 0}
        outSlope: {x: 0, y: 0, z: 0}
        tangentMode: 0
        weightedMode: 0
        inWeight: {x: 0.33333334, y: 0.33333334, z: 0.33333334}
        outWeight: {x: 0.33333334, y: 0.33333334, z: 0.33333334}
      m_PreInfinity: 2
      m_PostInfinity: 2
      m_RotationOrder: 4
    path: Armature/Root/Spine1/Spine2/Shoulder.L/Upperarm.L/Lowerarm.L
  - curve:
      serializedVersion: 2
      m_Curve:
      - serializedVersion: 3
        time: 0
        value: {x: 1, y: 0.99999976, z: 0.9999999}
        inSlope: {x: 0, y: 0, z: 0}
        outSlope: {x: 0, y: 0, z: 0}
        tangentMode: 0
        weightedMode: 0
        inWeight: {x: 0.33333334, y: 0.33333334, z: 0.33333334}
        outWeight: {x: 0.33333334, y: 0.33333334, z: 0.33333334}
      - serializedVersion: 3
        time: 1.625
        value: {x: 1, y: 0.99999976, z: 0.9999999}
        inSlope: {x: 0, y: 0, z: 0}
        outSlope: {x: 0, y: 0, z: 0}
        tangentMode: 0
        weightedMode: 0
        inWeight: {x: 0.33333334, y: 0.33333334, z: 0.33333334}
        outWeight: {x: 0.33333334, y: 0.33333334, z: 0.33333334}
      m_PreInfinity: 2
      m_PostInfinity: 2
      m_RotationOrder: 4
    path: Armature/Root/Spine1/Spine2/Shoulder.L/Upperarm.L/Lowerarm.L/Hand.L
  - curve:
      serializedVersion: 2
      m_Curve:
      - serializedVersion: 3
        time: 0
        value: {x: 1, y: 1, z: 1}
        inSlope: {x: 0, y: 0, z: 0}
        outSlope: {x: 0, y: 0, z: 0}
        tangentMode: 0
        weightedMode: 0
        inWeight: {x: 0.33333334, y: 0.33333334, z: 0.33333334}
        outWeight: {x: 0.33333334, y: 0.33333334, z: 0.33333334}
      - serializedVersion: 3
        time: 1.625
        value: {x: 1, y: 1, z: 1}
        inSlope: {x: 0, y: 0, z: 0}
        outSlope: {x: 0, y: 0, z: 0}
        tangentMode: 0
        weightedMode: 0
        inWeight: {x: 0.33333334, y: 0.33333334, z: 0.33333334}
        outWeight: {x: 0.33333334, y: 0.33333334, z: 0.33333334}
      m_PreInfinity: 2
      m_PostInfinity: 2
      m_RotationOrder: 4
    path: Armature/Root/Spine1/Spine2/Head
  - curve:
      serializedVersion: 2
      m_Curve:
      - serializedVersion: 3
        time: 0
        value: {x: 1, y: 1, z: 1}
        inSlope: {x: 0, y: 0, z: 0}
        outSlope: {x: 0, y: 0, z: 0}
        tangentMode: 0
        weightedMode: 0
        inWeight: {x: 0.33333334, y: 0.33333334, z: 0.33333334}
        outWeight: {x: 0.33333334, y: 0.33333334, z: 0.33333334}
      - serializedVersion: 3
        time: 1.625
        value: {x: 1, y: 1, z: 1}
        inSlope: {x: 0, y: 0, z: 0}
        outSlope: {x: 0, y: 0, z: 0}
        tangentMode: 0
        weightedMode: 0
        inWeight: {x: 0.33333334, y: 0.33333334, z: 0.33333334}
        outWeight: {x: 0.33333334, y: 0.33333334, z: 0.33333334}
      m_PreInfinity: 2
      m_PostInfinity: 2
      m_RotationOrder: 4
    path: Armature/Root/Spine1/Spine2/Shoulder.R
  - curve:
      serializedVersion: 2
      m_Curve:
      - serializedVersion: 3
        time: 0
        value: {x: 0.99999994, y: 0.9999999, z: 1}
        inSlope: {x: 0, y: 0, z: 0}
        outSlope: {x: 0, y: 0, z: 0}
        tangentMode: 0
        weightedMode: 0
        inWeight: {x: 0.33333334, y: 0.33333334, z: 0.33333334}
        outWeight: {x: 0.33333334, y: 0.33333334, z: 0.33333334}
      - serializedVersion: 3
        time: 1.625
        value: {x: 0.99999994, y: 0.9999999, z: 1}
        inSlope: {x: 0, y: 0, z: 0}
        outSlope: {x: 0, y: 0, z: 0}
        tangentMode: 0
        weightedMode: 0
        inWeight: {x: 0.33333334, y: 0.33333334, z: 0.33333334}
        outWeight: {x: 0.33333334, y: 0.33333334, z: 0.33333334}
      m_PreInfinity: 2
      m_PostInfinity: 2
      m_RotationOrder: 4
    path: Armature/Root/Spine1/Spine2/Shoulder.R/Upperarm.R
  - curve:
      serializedVersion: 2
      m_Curve:
      - serializedVersion: 3
        time: 0
        value: {x: 1, y: 0.99999994, z: 0.99999994}
        inSlope: {x: 0, y: 0, z: 0}
        outSlope: {x: 0, y: 0, z: 0}
        tangentMode: 0
        weightedMode: 0
        inWeight: {x: 0.33333334, y: 0.33333334, z: 0.33333334}
        outWeight: {x: 0.33333334, y: 0.33333334, z: 0.33333334}
      - serializedVersion: 3
        time: 1.625
        value: {x: 1, y: 0.99999994, z: 0.99999994}
        inSlope: {x: 0, y: 0, z: 0}
        outSlope: {x: 0, y: 0, z: 0}
        tangentMode: 0
        weightedMode: 0
        inWeight: {x: 0.33333334, y: 0.33333334, z: 0.33333334}
        outWeight: {x: 0.33333334, y: 0.33333334, z: 0.33333334}
      m_PreInfinity: 2
      m_PostInfinity: 2
      m_RotationOrder: 4
    path: Armature/Root/Spine1/Spine2/Shoulder.R/Upperarm.R/Lowerarm.R
  - curve:
      serializedVersion: 2
      m_Curve:
      - serializedVersion: 3
        time: 0
        value: {x: 0.99999994, y: 0.9999999, z: 0.9999999}
        inSlope: {x: 0, y: 0, z: 0}
        outSlope: {x: 0, y: 0, z: 0}
        tangentMode: 0
        weightedMode: 0
        inWeight: {x: 0.33333334, y: 0.33333334, z: 0.33333334}
        outWeight: {x: 0.33333334, y: 0.33333334, z: 0.33333334}
      - serializedVersion: 3
        time: 1.625
        value: {x: 0.99999994, y: 0.9999999, z: 0.9999999}
        inSlope: {x: 0, y: 0, z: 0}
        outSlope: {x: 0, y: 0, z: 0}
        tangentMode: 0
        weightedMode: 0
        inWeight: {x: 0.33333334, y: 0.33333334, z: 0.33333334}
        outWeight: {x: 0.33333334, y: 0.33333334, z: 0.33333334}
      m_PreInfinity: 2
      m_PostInfinity: 2
      m_RotationOrder: 4
    path: Armature/Root/Spine1/Spine2/Shoulder.R/Upperarm.R/Lowerarm.R/Hand.R
  - curve:
      serializedVersion: 2
      m_Curve:
      - serializedVersion: 3
        time: 0
        value: {x: 1.0000001, y: 1, z: 1.0000001}
        inSlope: {x: 0, y: 0, z: 0}
        outSlope: {x: 0, y: 0, z: 0}
        tangentMode: 0
        weightedMode: 0
        inWeight: {x: 0.33333334, y: 0.33333334, z: 0.33333334}
        outWeight: {x: 0.33333334, y: 0.33333334, z: 0.33333334}
      - serializedVersion: 3
        time: 1.625
        value: {x: 1.0000001, y: 1, z: 1.0000001}
        inSlope: {x: 0, y: 0, z: 0}
        outSlope: {x: 0, y: 0, z: 0}
        tangentMode: 0
        weightedMode: 0
        inWeight: {x: 0.33333334, y: 0.33333334, z: 0.33333334}
        outWeight: {x: 0.33333334, y: 0.33333334, z: 0.33333334}
      m_PreInfinity: 2
      m_PostInfinity: 2
      m_RotationOrder: 4
    path: Torch
  m_FloatCurves: []
  m_PPtrCurves: []
  m_SampleRate: 24
  m_WrapMode: 0
  m_Bounds:
    m_Center: {x: 0, y: 0, z: 0}
    m_Extent: {x: 0, y: 0, z: 0}
  m_ClipBindingConstant:
    genericBindings: []
    pptrCurveMapping: []
  m_AnimationClipSettings:
    serializedVersion: 2
    m_AdditiveReferencePoseClip: {fileID: 0}
    m_AdditiveReferencePoseTime: 0
    m_StartTime: 0
    m_StopTime: 1.625
    m_OrientationOffsetY: 0
    m_Level: 0
    m_CycleOffset: 0
    m_HasAdditiveReferencePose: 0
    m_LoopTime: 0
    m_LoopBlend: 0
    m_LoopBlendOrientation: 0
    m_LoopBlendPositionY: 0
    m_LoopBlendPositionXZ: 0
    m_KeepOriginalOrientation: 0
    m_KeepOriginalPositionY: 1
    m_KeepOriginalPositionXZ: 0
    m_HeightFromFeet: 0
    m_Mirror: 0
  m_EditorCurves: []
  m_EulerEditorCurves: []
  m_HasGenericRootTransform: 0
  m_HasMotionFloatCurves: 0
  m_Events: []
